<?xml version="1.0" standalone="no"?>
<!DOCTYPE svg PUBLIC "-//W3C//DTD SVG 1.1//EN" "http://www.w3.org/Graphics/SVG/1.1/DTD/svg11.dtd" >
<svg xmlns="http://www.w3.org/2000/svg" xmlns:xlink="http://www.w3.org/1999/xlink" version="1.1">
<metadata></metadata>
<defs>
<font id="open_sanssemibold" horiz-adv-x="1169" >
<font-face units-per-em="2048" ascent="1638" descent="-410" />
<missing-glyph horiz-adv-x="532" />
<glyph horiz-adv-x="0" />
<glyph unicode="&#xd;" horiz-adv-x="1044" />
<glyph unicode=" "  horiz-adv-x="532" />
<glyph unicode="&#x09;" horiz-adv-x="532" />
<glyph unicode="&#xa0;" horiz-adv-x="532" />
<glyph unicode="!" horiz-adv-x="565" d="M371 444h-174l-52 1018h277zM133 125q0 74 39 112.5t111 38.5q71 0 109 -40t38 -111t-38.5 -112.5t-108.5 -41.5q-71 0 -110.5 40t-39.5 114z" />
<glyph unicode="&#x22;" horiz-adv-x="893" d="M365 1462l-41 -528h-150l-41 528h232zM760 1462l-41 -528h-150l-41 528h232z" />
<glyph unicode="#" horiz-adv-x="1323" d="M989 870l-55 -284h270v-168h-303l-80 -418h-178l80 418h-248l-80 -418h-174l76 418h-250v168h283l57 284h-264v168h293l80 422h180l-80 -422h252l80 422h174l-80 -422h252v-168h-285zM506 586h250l57 284h-250z" />
<glyph unicode="$" d="M1063 453q0 -145 -106 -239t-306 -116v-217h-133v211q-248 4 -407 76v211q86 -42 201 -70.5t206 -29.5v374l-84 31q-164 63 -239.5 150.5t-75.5 216.5q0 138 107.5 227t291.5 108v168h133v-165q203 -7 385 -82l-73 -183q-157 62 -312 74v-364l76 -29q190 -73 263 -154 t73 -198zM827 438q0 58 -40.5 95.5t-135.5 72.5v-319q176 27 176 151zM354 1053q0 -57 35.5 -95t128.5 -75v311q-80 -12 -122 -49t-42 -92z" />
<glyph unicode="%" horiz-adv-x="1765" d="M279 1024q0 -149 29 -222t95 -73q132 0 132 295t-132 295q-66 0 -95 -73t-29 -222zM729 1026q0 -230 -82.5 -345.5t-243.5 -115.5q-152 0 -235.5 119.5t-83.5 341.5q0 457 319 457q157 0 241.5 -118.5t84.5 -338.5zM1231 440q0 -149 29.5 -223t95.5 -74q131 0 131 297 q0 293 -131 293q-66 0 -95.5 -72t-29.5 -221zM1681 440q0 -230 -83 -345t-242 -115q-152 0 -236 118.5t-84 341.5q0 457 320 457q154 0 239.5 -118t85.5 -339zM1384 1462l-811 -1462h-194l811 1462h194z" />
<glyph unicode="&#x26;" horiz-adv-x="1516" d="M451 1147q0 -63 33.5 -119t93.5 -119q113 64 158.5 119.5t45.5 124.5q0 65 -43.5 104t-115.5 39q-79 0 -125.5 -40.5t-46.5 -108.5zM600 182q183 0 313 107l-383 377q-106 -68 -146 -127.5t-40 -135.5q0 -98 69.5 -159.5t186.5 -61.5zM96 387q0 131 64 228.5t231 193.5 q-95 111 -129.5 187.5t-34.5 158.5q0 152 108.5 240t291.5 88q177 0 278 -85.5t101 -230.5q0 -114 -67.5 -207t-225.5 -186l346 -334q81 107 135 314h242q-70 -284 -224 -463l301 -291h-303l-149 145q-102 -82 -217.5 -123.5t-255.5 -41.5q-230 0 -361 109t-131 298z" />
<glyph unicode="'" horiz-adv-x="498" d="M365 1462l-41 -528h-150l-41 528h232z" />
<glyph unicode="(" horiz-adv-x="649" d="M82 561q0 265 77.5 496t223.5 405h205q-139 -188 -213 -421.5t-74 -477.5t74 -473t211 -414h-203q-147 170 -224 397t-77 488z" />
<glyph unicode=")" horiz-adv-x="649" d="M567 561q0 -263 -77.5 -490t-223.5 -395h-203q138 187 211.5 415t73.5 472q0 245 -74 477.5t-213 421.5h205q147 -175 224 -406.5t77 -494.5z" />
<glyph unicode="*" horiz-adv-x="1122" d="M672 1556l-41 -382l385 108l28 -217l-360 -29l236 -311l-199 -107l-166 338l-149 -338l-205 107l231 311l-358 29l35 217l376 -108l-41 382h228z" />
<glyph unicode="+" d="M494 633h-398v178h398v408h180v-408h399v-178h-399v-406h-180v406z" />
<glyph unicode="," horiz-adv-x="547" d="M412 215q-48 -186 -176 -479h-173q69 270 103 502h231z" />
<glyph unicode="-" horiz-adv-x="659" d="M72 449v200h514v-200h-514z" />
<glyph unicode="." horiz-adv-x="563" d="M133 125q0 73 38 112t110 39q73 0 111 -40.5t38 -110.5q0 -71 -38.5 -112.5t-110.5 -41.5t-110 41t-38 113z" />
<glyph unicode="/" horiz-adv-x="799" d="M782 1462l-544 -1462h-222l545 1462h221z" />
<glyph unicode="0" d="M1081 731q0 -381 -122.5 -566t-374.5 -185q-244 0 -370 191t-126 560q0 387 122.5 570.5t373.5 183.5q245 0 371 -192t126 -562zM326 731q0 -299 61.5 -427t196.5 -128t197.5 130t62.5 425q0 294 -62.5 425.5t-197.5 131.5t-196.5 -129t-61.5 -428z" />
<glyph unicode="1" d="M780 0h-235v944q0 169 8 268q-23 -24 -56.5 -53t-224.5 -184l-118 149l430 338h196v-1462z" />
<glyph unicode="2" d="M1081 0h-991v178l377 379q167 171 221.5 242.5t79.5 134.5t25 135q0 99 -59.5 156t-164.5 57q-84 0 -162.5 -31t-181.5 -112l-127 155q122 103 237 146t245 43q204 0 327 -106.5t123 -286.5q0 -99 -35.5 -188t-109 -183.5t-244.5 -255.5l-254 -246v-10h694v-207z" />
<glyph unicode="3" d="M1026 1126q0 -139 -81 -231.5t-228 -124.5v-8q176 -22 264 -109.5t88 -232.5q0 -211 -149 -325.5t-424 -114.5q-243 0 -410 79v209q93 -46 197 -71t200 -25q170 0 254 63t84 195q0 117 -93 172t-292 55h-127v191h129q350 0 350 242q0 94 -61 145t-180 51 q-83 0 -160 -23.5t-182 -91.5l-115 164q201 148 467 148q221 0 345 -95t124 -262z" />
<glyph unicode="4" d="M1133 319h-197v-319h-229v319h-668v181l668 966h229v-952h197v-195zM707 514v367q0 196 10 321h-8q-28 -66 -88 -160l-363 -528h449z" />
<glyph unicode="5" d="M586 913q221 0 350 -117t129 -319q0 -234 -146.5 -365.5t-416.5 -131.5q-245 0 -385 79v213q81 -46 186 -71t195 -25q159 0 242 71t83 208q0 262 -334 262q-47 0 -116 -9.5t-121 -21.5l-105 62l56 714h760v-209h-553l-33 -362q35 6 85.5 14t123.5 8z" />
<glyph unicode="6" d="M94 623q0 858 699 858q110 0 186 -17v-196q-76 22 -176 22q-235 0 -353 -126t-128 -404h12q47 81 132 125.5t200 44.5q199 0 310 -122t111 -331q0 -230 -128.5 -363.5t-350.5 -133.5q-157 0 -273 75.5t-178.5 220t-62.5 347.5zM604 174q121 0 186.5 78t65.5 223 q0 126 -61.5 198t-184.5 72q-76 0 -140 -32.5t-101 -89t-37 -115.5q0 -141 76.5 -237.5t195.5 -96.5z" />
<glyph unicode="7" d="M256 0l578 1253h-760v207h1011v-164l-575 -1296h-254z" />
<glyph unicode="8" d="M584 1481q208 0 329 -95.5t121 -255.5q0 -225 -270 -358q172 -86 244.5 -181t72.5 -212q0 -181 -133 -290t-360 -109q-238 0 -369 102t-131 289q0 122 68.5 219.5t224.5 173.5q-134 80 -191 169t-57 200q0 159 125 253.5t326 94.5zM313 379q0 -104 73 -161.5t198 -57.5 q129 0 200.5 59.5t71.5 161.5q0 81 -66 148t-200 124l-29 13q-132 -58 -190 -127.5t-58 -159.5zM582 1300q-100 0 -161 -49.5t-61 -134.5q0 -52 22 -93t64 -74.5t142 -80.5q120 53 169.5 111.5t49.5 136.5q0 85 -61.5 134.5t-163.5 49.5z" />
<glyph unicode="9" d="M1079 838q0 -432 -174 -645t-524 -213q-133 0 -191 16v197q89 -25 179 -25q238 0 355 128t128 402h-12q-59 -90 -142.5 -130t-195.5 -40q-194 0 -305 121t-111 332q0 229 128.5 364.5t350.5 135.5q156 0 272 -76t179 -220.5t63 -346.5zM569 1286q-122 0 -187 -79.5 t-65 -223.5q0 -125 60.5 -196.5t183.5 -71.5q119 0 200 71t81 166q0 89 -34.5 166.5t-96.5 122.5t-142 45z" />
<glyph unicode=":" horiz-adv-x="563" d="M133 125q0 73 38 112t110 39q73 0 111 -40.5t38 -110.5q0 -71 -38.5 -112.5t-110.5 -41.5t-110 41t-38 113zM133 979q0 151 148 151q75 0 112 -40t37 -111t-38.5 -112.5t-110.5 -41.5t-110 41t-38 113z" />
<glyph unicode=";" horiz-adv-x="569" d="M397 238l15 -23q-48 -186 -176 -479h-173q69 270 103 502h231zM131 979q0 151 148 151q75 0 112 -40t37 -111t-38.5 -112.5t-110.5 -41.5t-110 41t-38 113z" />
<glyph unicode="&#x3c;" d="M1073 221l-977 430v121l977 488v-195l-733 -344l733 -303v-197z" />
<glyph unicode="=" d="M102 831v179h963v-179h-963zM102 432v178h963v-178h-963z" />
<glyph unicode="&#x3e;" d="M96 418l733 303l-733 344v195l977 -488v-121l-977 -430v197z" />
<glyph unicode="?" horiz-adv-x="928" d="M283 444v64q0 110 40 183t140 151q119 94 153.5 146t34.5 124q0 84 -56 129t-161 45q-95 0 -176 -27t-158 -65l-84 176q203 113 435 113q196 0 311 -96t115 -265q0 -75 -22 -133.5t-66.5 -111.5t-153.5 -138q-93 -73 -124.5 -121t-31.5 -129v-45h-196zM242 125 q0 151 147 151q72 0 110 -39.5t38 -111.5q0 -71 -38.5 -112.5t-109.5 -41.5t-109 40.5t-38 113.5z" />
<glyph unicode="@" horiz-adv-x="1839" d="M1726 739q0 -143 -45 -261.5t-126.5 -184.5t-188.5 -66q-79 0 -137 42t-78 114h-12q-49 -78 -121 -117t-162 -39q-163 0 -256.5 105t-93.5 284q0 206 124 334.5t333 128.5q76 0 168.5 -13.5t164.5 -37.5l-22 -465v-24q0 -160 104 -160q79 0 125.5 102t46.5 260 q0 171 -70 300.5t-199 199.5t-296 70q-213 0 -370.5 -88t-240.5 -251.5t-83 -379.5q0 -290 155 -446t445 -156q221 0 461 90v-164q-210 -86 -457 -86q-370 0 -577 199.5t-207 556.5q0 261 112 464.5t310.5 311.5t449.5 108q217 0 386.5 -90t263 -256.5t93.5 -384.5zM698 612 q0 -233 183 -233q193 0 211 293l12 239q-63 17 -135 17q-128 0 -199.5 -85t-71.5 -231z" />
<glyph unicode="A" horiz-adv-x="1354" d="M1100 0l-146 406h-559l-143 -406h-252l547 1468h260l547 -1468h-254zM891 612l-137 398q-15 40 -41.5 126t-36.5 126q-27 -123 -79 -269l-132 -381h426z" />
<glyph unicode="B" horiz-adv-x="1352" d="M193 1462h434q302 0 436.5 -88t134.5 -278q0 -128 -66 -213t-190 -107v-10q154 -29 226.5 -114.5t72.5 -231.5q0 -197 -137.5 -308.5t-382.5 -111.5h-528v1462zM432 858h230q150 0 219 47.5t69 161.5q0 103 -74.5 149t-236.5 46h-207v-404zM432 664v-463h254 q150 0 226.5 57.5t76.5 181.5q0 114 -78 169t-237 55h-242z" />
<glyph unicode="C" horiz-adv-x="1298" d="M815 1278q-206 0 -324 -146t-118 -403q0 -269 113.5 -407t328.5 -138q93 0 180 18.5t181 47.5v-205q-172 -65 -390 -65q-321 0 -493 194.5t-172 556.5q0 228 83.5 399t241.5 262t371 91q224 0 414 -94l-86 -199q-74 35 -156.5 61.5t-173.5 26.5z" />
<glyph unicode="D" horiz-adv-x="1503" d="M1382 745q0 -362 -201 -553.5t-579 -191.5h-409v1462h452q349 0 543 -188t194 -529zM1130 737q0 525 -491 525h-207v-1061h170q528 0 528 536z" />
<glyph unicode="E" horiz-adv-x="1143" d="M1020 0h-827v1462h827v-202h-588v-398h551v-200h-551v-459h588v-203z" />
<glyph unicode="F" horiz-adv-x="1090" d="M430 0h-237v1462h825v-202h-588v-457h551v-203h-551v-600z" />
<glyph unicode="G" horiz-adv-x="1487" d="M791 793h538v-734q-132 -43 -253.5 -61t-262.5 -18q-332 0 -512 196.5t-180 554.5q0 353 203 552.5t559 199.5q229 0 434 -88l-84 -199q-178 82 -356 82q-234 0 -370 -147t-136 -402q0 -268 122.5 -407.5t352.5 -139.5q116 0 248 29v377h-303v205z" />
<glyph unicode="H" horiz-adv-x="1538" d="M1346 0h-240v659h-674v-659h-239v1462h239v-598h674v598h240v-1462z" />
<glyph unicode="I" horiz-adv-x="625" d="M193 0v1462h239v-1462h-239z" />
<glyph unicode="J" horiz-adv-x="612" d="M8 -408q-98 0 -164 25v201q84 -21 146 -21q196 0 196 248v1417h240v-1409q0 -224 -106.5 -342.5t-311.5 -118.5z" />
<glyph unicode="K" horiz-adv-x="1309" d="M1309 0h-277l-459 662l-141 -115v-547h-239v1462h239v-698q98 120 195 231l395 467h272q-383 -450 -549 -641z" />
<glyph unicode="L" horiz-adv-x="1110" d="M193 0v1462h239v-1257h619v-205h-858z" />
<glyph unicode="M" horiz-adv-x="1890" d="M825 0l-424 1221h-8q17 -272 17 -510v-711h-217v1462h337l406 -1163h6l418 1163h338v-1462h-230v723q0 109 5.5 284t9.5 212h-8l-439 -1219h-211z" />
<glyph unicode="N" horiz-adv-x="1604" d="M1411 0h-293l-719 1165h-8l5 -65q14 -186 14 -340v-760h-217v1462h290l717 -1159h6q-2 23 -8 167.5t-6 225.5v766h219v-1462z" />
<glyph unicode="O" horiz-adv-x="1612" d="M1491 733q0 -357 -178.5 -555t-505.5 -198q-331 0 -508.5 196.5t-177.5 558.5t178.5 556t509.5 194q326 0 504 -197t178 -555zM375 733q0 -270 109 -409.5t323 -139.5q213 0 321.5 138t108.5 411q0 269 -107.5 408t-320.5 139q-215 0 -324.5 -139t-109.5 -408z" />
<glyph unicode="P" horiz-adv-x="1260" d="M1161 1020q0 -229 -150 -351t-427 -122h-152v-547h-239v1462h421q274 0 410.5 -112t136.5 -330zM432 748h127q184 0 270 64t86 200q0 126 -77 188t-240 62h-166v-514z" />
<glyph unicode="Q" horiz-adv-x="1612" d="M1491 733q0 -266 -101.5 -448t-295.5 -256l350 -377h-322l-276 328h-39q-331 0 -508.5 196.5t-177.5 558.5t178.5 556t509.5 194q326 0 504 -197t178 -555zM375 733q0 -270 109 -409.5t323 -139.5q213 0 321.5 138t108.5 411q0 269 -107.5 408t-320.5 139 q-215 0 -324.5 -139t-109.5 -408z" />
<glyph unicode="R" horiz-adv-x="1309" d="M432 782h166q167 0 242 62t75 184q0 124 -81 178t-244 54h-158v-478zM432 584v-584h-239v1462h413q283 0 419 -106t136 -320q0 -273 -284 -389l413 -647h-272l-350 584h-236z" />
<glyph unicode="S" horiz-adv-x="1126" d="M1036 397q0 -195 -141 -306t-389 -111t-406 77v226q100 -47 212.5 -74t209.5 -27q142 0 209.5 54t67.5 145q0 82 -62 139t-256 135q-200 81 -282 185t-82 250q0 183 130 288t349 105q210 0 418 -92l-76 -195q-195 82 -348 82q-116 0 -176 -50.5t-60 -133.5 q0 -57 24 -97.5t79 -76.5t198 -95q161 -67 236 -125t110 -131t35 -172z" />
<glyph unicode="T" horiz-adv-x="1159" d="M698 0h-239v1257h-430v205h1099v-205h-430v-1257z" />
<glyph unicode="U" horiz-adv-x="1520" d="M1339 1462v-946q0 -162 -69.5 -283.5t-201 -187t-314.5 -65.5q-272 0 -423 144t-151 396v942h240v-925q0 -181 84 -267t258 -86q338 0 338 355v923h239z" />
<glyph unicode="V" horiz-adv-x="1274" d="M1026 1462h248l-512 -1462h-252l-510 1462h246l305 -909q24 -65 51 -167.5t35 -152.5q13 76 40 176t44 148z" />
<glyph unicode="W" horiz-adv-x="1937" d="M1542 0h-260l-248 872q-16 57 -40 164.5t-29 149.5q-10 -64 -32.5 -166t-37.5 -152l-242 -868h-260l-189 732l-192 730h244l209 -852q49 -205 70 -362q11 85 33 190t40 170l238 854h237l244 -858q35 -119 74 -356q15 143 72 364l208 850h242z" />
<glyph unicode="X" horiz-adv-x="1274" d="M1270 0h-275l-366 598l-369 -598h-256l485 758l-454 704h266l338 -553l338 553h258l-457 -708z" />
<glyph unicode="Y" horiz-adv-x="1212" d="M606 795l346 667h260l-487 -895v-567h-240v559l-485 903h260z" />
<glyph unicode="Z" horiz-adv-x="1178" d="M1112 0h-1046v166l737 1091h-717v205h1006v-168l-740 -1089h760v-205z" />
<glyph unicode="[" horiz-adv-x="676" d="M625 -324h-471v1786h471v-176h-256v-1433h256v-177z" />
<glyph unicode="\" horiz-adv-x="799" d="M238 1462l544 -1462h-221l-545 1462h222z" />
<glyph unicode="]" horiz-adv-x="676" d="M51 -147h256v1433h-256v176h469v-1786h-469v177z" />
<glyph unicode="^" horiz-adv-x="1100" d="M29 535l436 935h121l485 -935h-194l-349 694l-307 -694h-192z" />
<glyph unicode="_" horiz-adv-x="879" d="M883 -319h-887v135h887v-135z" />
<glyph unicode="`" horiz-adv-x="1212" d="M690 1241q-69 52 -174.5 150.5t-153.5 156.5v21h273q38 -70 103.5 -161t109.5 -142v-25h-158z" />
<glyph unicode="a" horiz-adv-x="1188" d="M860 0l-47 154h-8q-80 -101 -161 -137.5t-208 -36.5q-163 0 -254.5 88t-91.5 249q0 171 127 258t387 95l191 6v59q0 106 -49.5 158.5t-153.5 52.5q-85 0 -163 -25t-150 -59l-76 168q90 47 197 71.5t202 24.5q211 0 318.5 -92t107.5 -289v-745h-168zM510 160 q128 0 205.5 71.5t77.5 200.5v96l-142 -6q-166 -6 -241.5 -55.5t-75.5 -151.5q0 -74 44 -114.5t132 -40.5z" />
<glyph unicode="b" horiz-adv-x="1276" d="M733 1126q207 0 322.5 -150t115.5 -421q0 -272 -117 -423.5t-325 -151.5q-210 0 -326 151h-16l-43 -131h-176v1556h235v-370q0 -41 -4 -122t-6 -103h10q112 165 330 165zM672 934q-142 0 -204.5 -83.5t-64.5 -279.5v-16q0 -202 64 -292.5t209 -90.5q125 0 189.5 99 t64.5 286q0 377 -258 377z" />
<glyph unicode="c" horiz-adv-x="1014" d="M614 -20q-251 0 -381.5 146.5t-130.5 420.5q0 279 136.5 429t394.5 150q175 0 315 -65l-71 -189q-149 58 -246 58q-287 0 -287 -381q0 -186 71.5 -279.5t209.5 -93.5q157 0 297 78v-205q-63 -37 -134.5 -53t-173.5 -16z" />
<glyph unicode="d" horiz-adv-x="1276" d="M541 -20q-207 0 -323 150t-116 421q0 272 117.5 423.5t325.5 151.5q218 0 332 -161h12q-17 119 -17 188v403h236v-1556h-184l-41 145h-11q-113 -165 -331 -165zM604 170q145 0 211 81.5t68 264.5v33q0 209 -68 297t-213 88q-124 0 -191 -100.5t-67 -286.5 q0 -184 65 -280.5t195 -96.5z" />
<glyph unicode="e" horiz-adv-x="1180" d="M651 -20q-258 0 -403.5 150.5t-145.5 414.5q0 271 135 426t371 155q219 0 346 -133t127 -366v-127h-737q5 -161 87 -247.5t231 -86.5q98 0 182.5 18.5t181.5 61.5v-191q-86 -41 -174 -58t-201 -17zM608 948q-112 0 -179.5 -71t-80.5 -207h502q-2 137 -66 207.5t-176 70.5 z" />
<glyph unicode="f" horiz-adv-x="743" d="M723 928h-270v-928h-236v928h-182v110l182 72v72q0 196 92 290.5t281 94.5q124 0 244 -41l-62 -178q-87 28 -166 28q-80 0 -116.5 -49.5t-36.5 -148.5v-72h270v-178z" />
<glyph unicode="g" horiz-adv-x="1139" d="M1102 1106v-129l-189 -35q26 -35 43 -86t17 -108q0 -171 -118 -269t-325 -98q-53 0 -96 8q-76 -47 -76 -110q0 -38 35.5 -57t130.5 -19h193q183 0 278 -78t95 -225q0 -188 -155 -290t-448 -102q-226 0 -345 80t-119 228q0 102 64.5 171.5t180.5 96.5q-47 20 -77.5 64.5 t-30.5 93.5q0 62 35 105t104 85q-86 37 -139.5 120.5t-53.5 195.5q0 180 113.5 279t323.5 99q47 0 98.5 -6.5t77.5 -13.5h383zM233 -172q0 -76 68.5 -117t192.5 -41q192 0 286 55t94 146q0 72 -51.5 102.5t-191.5 30.5h-178q-101 0 -160.5 -47.5t-59.5 -128.5zM334 748 q0 -104 53.5 -160t153.5 -56q204 0 204 218q0 108 -50.5 166.5t-153.5 58.5q-102 0 -154.5 -58t-52.5 -169z" />
<glyph unicode="h" horiz-adv-x="1300" d="M1141 0h-236v680q0 128 -51.5 191t-163.5 63q-148 0 -217.5 -88.5t-69.5 -296.5v-549h-235v1556h235v-395q0 -95 -12 -203h15q48 80 133.5 124t199.5 44q402 0 402 -405v-721z" />
<glyph unicode="i" horiz-adv-x="571" d="M403 0h-235v1106h235v-1106zM154 1399q0 63 34.5 97t98.5 34q62 0 96.5 -34t34.5 -97q0 -60 -34.5 -94.5t-96.5 -34.5q-64 0 -98.5 34.5t-34.5 94.5z" />
<glyph unicode="j" horiz-adv-x="571" d="M55 -492q-106 0 -176 25v186q68 -18 139 -18q150 0 150 170v1235h235v-1251q0 -171 -89.5 -259t-258.5 -88zM154 1399q0 63 34.5 97t98.5 34q62 0 96.5 -34t34.5 -97q0 -60 -34.5 -94.5t-96.5 -34.5q-64 0 -98.5 34.5t-34.5 94.5z" />
<glyph unicode="k" horiz-adv-x="1171" d="M395 584l133 166l334 356h271l-445 -475l473 -631h-276l-355 485l-129 -106v-379h-233v1556h233v-759l-12 -213h6z" />
<glyph unicode="l" horiz-adv-x="571" d="M403 0h-235v1556h235v-1556z" />
<glyph unicode="m" horiz-adv-x="1958" d="M1100 0h-236v682q0 127 -48 189.5t-150 62.5q-136 0 -199.5 -88.5t-63.5 -294.5v-551h-235v1106h184l33 -145h12q46 79 133.5 122t192.5 43q255 0 338 -174h16q49 82 138 128t204 46q198 0 288.5 -100t90.5 -305v-721h-235v682q0 127 -48.5 189.5t-150.5 62.5 q-137 0 -200.5 -85.5t-63.5 -262.5v-586z" />
<glyph unicode="n" horiz-adv-x="1300" d="M1141 0h-236v680q0 128 -51.5 191t-163.5 63q-149 0 -218 -88t-69 -295v-551h-235v1106h184l33 -145h12q50 79 142 122t204 43q398 0 398 -405v-721z" />
<glyph unicode="o" horiz-adv-x="1251" d="M1149 555q0 -271 -139 -423t-387 -152q-155 0 -274 70t-183 201t-64 304q0 269 138 420t389 151q240 0 380 -154.5t140 -416.5zM344 555q0 -383 283 -383q280 0 280 383q0 379 -282 379q-148 0 -214.5 -98t-66.5 -281z" />
<glyph unicode="p" horiz-adv-x="1276" d="M729 -20q-210 0 -326 151h-14q14 -140 14 -170v-453h-235v1598h190q8 -31 33 -148h12q110 168 330 168q207 0 322.5 -150t115.5 -421t-117.5 -423t-324.5 -152zM672 934q-140 0 -204.5 -82t-64.5 -262v-35q0 -202 64 -292.5t209 -90.5q122 0 188 100t66 285 q0 186 -65.5 281.5t-192.5 95.5z" />
<glyph unicode="q" horiz-adv-x="1276" d="M606 168q148 0 212.5 85.5t64.5 258.5v37q0 205 -66.5 295t-214.5 90q-126 0 -192 -100t-66 -287q0 -379 262 -379zM539 -20q-205 0 -321 150.5t-116 420.5t118 422.5t325 152.5q104 0 186.5 -38.5t147.5 -126.5h8l26 145h195v-1598h-236v469q0 44 4 93t7 75h-13 q-104 -165 -331 -165z" />
<glyph unicode="r" horiz-adv-x="883" d="M729 1126q71 0 117 -10l-23 -219q-50 12 -104 12q-141 0 -228.5 -92t-87.5 -239v-578h-235v1106h184l31 -195h12q55 99 143.5 157t190.5 58z" />
<glyph unicode="s" horiz-adv-x="997" d="M911 315q0 -162 -118 -248.5t-338 -86.5q-221 0 -355 67v203q195 -90 363 -90q217 0 217 131q0 42 -24 70t-79 58t-153 68q-191 74 -258.5 148t-67.5 192q0 142 114.5 220.5t311.5 78.5q195 0 369 -79l-76 -177q-179 74 -301 74q-186 0 -186 -106q0 -52 48.5 -88 t211.5 -99q137 -53 199 -97t92 -101.5t30 -137.5z" />
<glyph unicode="t" horiz-adv-x="805" d="M580 170q86 0 172 27v-177q-39 -17 -100.5 -28.5t-127.5 -11.5q-334 0 -334 352v596h-151v104l162 86l80 234h145v-246h315v-178h-315v-592q0 -85 42.5 -125.5t111.5 -40.5z" />
<glyph unicode="u" horiz-adv-x="1300" d="M948 0l-33 145h-12q-49 -77 -139.5 -121t-206.5 -44q-201 0 -300 100t-99 303v723h237v-682q0 -127 52 -190.5t163 -63.5q148 0 217.5 88.5t69.5 296.5v551h236v-1106h-185z" />
<glyph unicode="v" horiz-adv-x="1096" d="M420 0l-420 1106h248l225 -643q58 -162 70 -262h8q9 72 70 262l225 643h250l-422 -1106h-254z" />
<glyph unicode="w" horiz-adv-x="1673" d="M1075 0l-143 516q-26 82 -94 381h-9q-58 -270 -92 -383l-147 -514h-260l-310 1106h240l141 -545q48 -202 68 -346h6q10 73 30.5 167.5t35.5 141.5l168 582h258l163 -582q15 -49 37.5 -150t26.5 -157h8q15 123 70 344l143 545h236l-312 -1106h-264z" />
<glyph unicode="x" horiz-adv-x="1128" d="M414 565l-371 541h268l252 -387l254 387h266l-372 -541l391 -565h-266l-273 414l-272 -414h-266z" />
<glyph unicode="y" horiz-adv-x="1098" d="M0 1106h256l225 -627q51 -134 68 -252h8q9 55 33 133.5t254 745.5h254l-473 -1253q-129 -345 -430 -345q-78 0 -152 17v186q53 -12 121 -12q170 0 239 197l41 104z" />
<glyph unicode="z" horiz-adv-x="979" d="M907 0h-839v145l559 781h-525v180h789v-164l-547 -762h563v-180z" />
<glyph unicode="{" horiz-adv-x="791" d="M311 287q0 186 -266 186v191q135 0 200.5 45.5t65.5 138.5v311q0 156 108.5 229.5t325.5 73.5v-182q-114 -5 -165.5 -46.5t-51.5 -123.5v-297q0 -199 -229 -238v-12q229 -36 229 -237v-299q0 -82 51 -124t166 -44v-183q-231 2 -332.5 78.5t-101.5 247.5v285z" />
<glyph unicode="|" horiz-adv-x="1128" d="M473 1552h180v-2033h-180v2033z" />
<glyph unicode="}" horiz-adv-x="760" d="M463 -20q0 -156 -99.5 -229t-318.5 -75v183q95 1 148 38.5t53 129.5v262q0 121 53 187t176 87v12q-229 39 -229 238v297q0 82 -45.5 123.5t-155.5 46.5v182q223 0 320.5 -76.5t97.5 -250.5v-287q0 -100 63.5 -142t188.5 -42v-191q-123 0 -187.5 -42.5t-64.5 -143.5v-307z " />
<glyph unicode="~" d="M330 692q-50 0 -111.5 -30t-122.5 -91v191q99 108 250 108q66 0 125 -13t147 -50q131 -55 220 -55q52 0 114.5 31t120.5 89v-190q-105 -111 -250 -111q-65 0 -127.5 15.5t-146.5 50.5q-127 55 -219 55z" />
<glyph unicode="&#xa8;" horiz-adv-x="1212" d="M293 1399q0 62 33.5 89.5t81.5 27.5q53 0 84.5 -31t31.5 -86q0 -53 -32 -85t-84 -32q-48 0 -81.5 29t-33.5 88zM686 1399q0 62 33.5 89.5t81.5 27.5q53 0 85 -31t32 -86q0 -54 -33 -85.5t-84 -31.5q-48 0 -81.5 29t-33.5 88z" />
<glyph unicode="&#xad;" horiz-adv-x="659" d="M72 449v200h514v-200h-514z" />
<glyph unicode="&#xb4;" horiz-adv-x="1212" d="M362 1241v25q57 70 117.5 156t95.5 147h273v-21q-52 -61 -155.5 -157.5t-174.5 -149.5h-156z" />
<glyph unicode="&#x400;" horiz-adv-x="1143" d="M1020 0h-827v1462h827v-202h-588v-398h551v-200h-551v-459h588v-203zM603 1579q-69 52 -174.5 150.5t-153.5 156.5v21h273q38 -70 103.5 -161t109.5 -142v-25h-158z" />
<glyph unicode="&#x401;" horiz-adv-x="1143" d="M303 1737q0 62 33.5 89.5t81.5 27.5q53 0 84.5 -31t31.5 -86q0 -53 -32 -85t-84 -32q-48 0 -81.5 29t-33.5 88zM696 1737q0 62 33.5 89.5t81.5 27.5q53 0 85 -31t32 -86q0 -54 -33 -85.5t-84 -31.5q-48 0 -81.5 29t-33.5 88zM1020 0h-827v1462h827v-202h-588v-398h551 v-200h-551v-459h588v-203z" />
<glyph unicode="&#x402;" horiz-adv-x="1575" d="M1053 -20q-103 0 -176 30v203q84 -31 159 -31q87 0 126.5 49t39.5 146v129q0 108 -52 154.5t-171 46.5h-358v-707h-240v1257h-352v205h1032v-205h-440v-346h370q218 0 334.5 -100t116.5 -281v-137q0 -198 -100 -305.5t-289 -107.5z" />
<glyph unicode="&#x403;" horiz-adv-x="1106" d="M1061 1462v-205h-629v-1257h-239v1462h868zM473 1579v25q57 70 117.5 156t95.5 147h273v-21q-52 -61 -155.5 -157.5t-174.5 -149.5h-156z" />
<glyph unicode="&#x404;" horiz-adv-x="1348" d="M838 1278q-200 0 -320.5 -111t-140.5 -315h678v-203h-680q10 -223 126 -344t337 -121q161 0 389 66v-205q-180 -65 -410 -65q-336 0 -516 192t-180 559q0 228 86.5 398.5t250 262t388.5 91.5q231 0 436 -94l-90 -201q-125 55 -200 72.5t-154 17.5z" />
<glyph unicode="&#x405;" horiz-adv-x="1126" d="M1036 397q0 -195 -141 -306t-389 -111t-406 77v226q100 -47 212.5 -74t209.5 -27q142 0 209.5 54t67.5 145q0 82 -62 139t-256 135q-200 81 -282 185t-82 250q0 183 130 288t349 105q210 0 418 -92l-76 -195q-195 82 -348 82q-116 0 -176 -50.5t-60 -133.5 q0 -57 24 -97.5t79 -76.5t198 -95q161 -67 236 -125t110 -131t35 -172z" />
<glyph unicode="&#x406;" horiz-adv-x="625" d="M193 0v1462h239v-1462h-239z" />
<glyph unicode="&#x407;" horiz-adv-x="625" d="M1 1737q0 62 33.5 89.5t81.5 27.5q53 0 84.5 -31t31.5 -86q0 -53 -32 -85t-84 -32q-48 0 -81.5 29t-33.5 88zM394 1737q0 62 33.5 89.5t81.5 27.5q53 0 85 -31t32 -86q0 -54 -33 -85.5t-84 -31.5q-48 0 -81.5 29t-33.5 88zM193 0v1462h239v-1462h-239z" />
<glyph unicode="&#x408;" horiz-adv-x="612" d="M8 -408q-98 0 -164 25v201q84 -21 146 -21q196 0 196 248v1417h240v-1409q0 -224 -106.5 -342.5t-311.5 -118.5z" />
<glyph unicode="&#x409;" horiz-adv-x="1974" d="M1890 440q0 -217 -142.5 -328.5t-416.5 -111.5h-366v1257h-328l-29 -223q-50 -376 -84.5 -569.5t-79.5 -293t-116.5 -147t-180.5 -47.5q-73 0 -139 25v199q57 -25 111 -25q72 0 113.5 89.5t92.5 405t111 791.5h768v-594h119q276 0 421.5 -109.5t145.5 -318.5zM1204 201 h113q163 0 245.5 56.5t82.5 182.5q0 120 -81 174t-274 54h-86v-467z" />
<glyph unicode="&#x40a;" horiz-adv-x="2001" d="M1917 440q0 -217 -141.5 -328.5t-415.5 -111.5h-369v659h-559v-659h-239v1462h239v-598h559v598h242v-594h117q278 0 422.5 -110.5t144.5 -317.5zM1233 201h113q161 0 244 56.5t83 182.5q0 118 -80.5 173t-273.5 55h-86v-467z" />
<glyph unicode="&#x40b;" horiz-adv-x="1575" d="M1202 0v508q0 104 -47.5 151.5t-159.5 47.5h-374v-707h-240v1257h-352v205h1065v-205h-473v-346h391q207 0 318.5 -99.5t111.5 -281.5v-530h-240z" />
<glyph unicode="&#x40c;" horiz-adv-x="1315" d="M567 1579v25q57 70 117.5 156t95.5 147h273v-21q-52 -61 -155.5 -157.5t-174.5 -149.5h-156zM1315 0h-281l-602 741v-741h-239v1462h239v-708l592 708h262l-590 -706z" />
<glyph unicode="&#x40d;" horiz-adv-x="1622" d="M193 1462h219v-760q0 -119 -6 -240.5t-9 -164.5h9l747 1165h279v-1462h-220v754q0 173 19 420h-8l-750 -1174h-280v1462zM784 1579q-69 52 -174.5 150.5t-153.5 156.5v21h273q38 -70 103.5 -161t109.5 -142v-25h-158z" />
<glyph unicode="&#x40e;" horiz-adv-x="1305" d="M1305 1462l-461 -1040q-85 -191 -156 -276.5t-164.5 -125.5t-226.5 -40q-116 0 -215 30v215q98 -39 205 -39q91 0 152.5 44.5t111.5 160.5l-539 1071h258l357 -733q48 -104 59 -139h10q6 26 30 83l329 789h250zM662 1579q-212 0 -310.5 76.5t-109.5 255.5h213 q6 -72 27.5 -112t62 -57.5t123.5 -17.5q98 0 149 43.5t62 143.5h217q-15 -172 -121 -252t-313 -80z" />
<glyph unicode="&#x40f;" horiz-adv-x="1509" d="M1317 0h-447v-403h-237v403h-440v1462h239v-1257h645v1257h240v-1462z" />
<glyph unicode="&#x410;" horiz-adv-x="1354" d="M1100 0l-146 406h-559l-143 -406h-252l547 1468h260l547 -1468h-254zM891 612l-137 398q-15 40 -41.5 126t-36.5 126q-27 -123 -79 -269l-132 -381h426z" />
<glyph unicode="&#x411;" horiz-adv-x="1280" d="M1182 440q0 -440 -564 -440h-425v1462h892v-205h-653v-389h174q576 0 576 -428zM432 201h172q172 0 252 56.5t80 182.5q0 121 -80.5 174.5t-280.5 53.5h-143v-467z" />
<glyph unicode="&#x412;" horiz-adv-x="1352" d="M193 1462h434q302 0 436.5 -88t134.5 -278q0 -128 -66 -213t-190 -107v-10q154 -29 226.5 -114.5t72.5 -231.5q0 -197 -137.5 -308.5t-382.5 -111.5h-528v1462zM432 858h230q150 0 219 47.5t69 161.5q0 103 -74.5 149t-236.5 46h-207v-404zM432 664v-463h254 q150 0 226.5 57.5t76.5 181.5q0 114 -78 169t-237 55h-242z" />
<glyph unicode="&#x413;" horiz-adv-x="1106" d="M1061 1462v-205h-629v-1257h-239v1462h868z" />
<glyph unicode="&#x414;" horiz-adv-x="1481" d="M12 205h113q145 265 243 595t126 662h755v-1257h189v-608h-230v403h-966v-403h-230v608zM694 1255q-22 -227 -112 -526.5t-205 -523.5h633v1050h-316z" />
<glyph unicode="&#x415;" horiz-adv-x="1143" d="M1020 0h-827v1462h827v-202h-588v-398h551v-200h-551v-459h588v-203z" />
<glyph unicode="&#x416;" horiz-adv-x="1829" d="M559 756l-534 706h256l520 -708v708h227v-708l520 708h256l-534 -706l557 -756h-264l-535 741v-741h-227v741l-535 -741h-266z" />
<glyph unicode="&#x417;" horiz-adv-x="1257" d="M1120 1120q0 -143 -94.5 -234t-261.5 -116v-6q192 -23 292.5 -113.5t100.5 -236.5q0 -204 -159.5 -319t-440.5 -115q-292 0 -467 79v209q97 -46 217.5 -71t220.5 -25q385 0 385 252q0 116 -115.5 177t-342.5 61h-176v192h165q437 0 437 233q0 93 -74.5 147t-208.5 54 q-106 0 -202 -28t-199 -95l-109 162q225 156 530 156q232 0 367 -99t135 -264z" />
<glyph unicode="&#x418;" horiz-adv-x="1622" d="M193 1462h219v-760q0 -119 -6 -240.5t-9 -164.5h9l747 1165h279v-1462h-220v754q0 173 19 420h-8l-750 -1174h-280v1462z" />
<glyph unicode="&#x419;" horiz-adv-x="1622" d="M193 1462h219v-760q0 -119 -6 -240.5t-9 -164.5h9l747 1165h279v-1462h-220v754q0 173 19 420h-8l-750 -1174h-280v1462zM820 1579q-212 0 -310.5 76.5t-109.5 255.5h213q6 -72 27.5 -112t62 -57.5t123.5 -17.5q98 0 149 43.5t62 143.5h217q-15 -172 -121 -252t-313 -80z " />
<glyph unicode="&#x41a;" horiz-adv-x="1315" d="M1315 0h-281l-602 741v-741h-239v1462h239v-708l592 708h262l-590 -706z" />
<glyph unicode="&#x41b;" horiz-adv-x="1483" d="M1290 0h-239v1257h-416q-79 -640 -126.5 -871t-133.5 -321.5t-228 -87.5q-73 0 -139 25v199q57 -25 111 -25q72 0 112.5 86.5t89 382.5t115.5 817h854v-1462z" />
<glyph unicode="&#x41c;" horiz-adv-x="1890" d="M825 0l-424 1221h-8q17 -272 17 -510v-711h-217v1462h337l406 -1163h6l418 1163h338v-1462h-230v723q0 109 5.5 284t9.5 212h-8l-439 -1219h-211z" />
<glyph unicode="&#x41d;" horiz-adv-x="1538" d="M1346 0h-240v659h-674v-659h-239v1462h239v-598h674v598h240v-1462z" />
<glyph unicode="&#x41e;" horiz-adv-x="1612" d="M1491 733q0 -357 -178.5 -555t-505.5 -198q-331 0 -508.5 196.5t-177.5 558.5t178.5 556t509.5 194q326 0 504 -197t178 -555zM375 733q0 -270 109 -409.5t323 -139.5q213 0 321.5 138t108.5 411q0 269 -107.5 408t-320.5 139q-215 0 -324.5 -139t-109.5 -408z" />
<glyph unicode="&#x41f;" horiz-adv-x="1509" d="M1317 0h-240v1257h-645v-1257h-239v1462h1124v-1462z" />
<glyph unicode="&#x420;" horiz-adv-x="1260" d="M1161 1020q0 -229 -150 -351t-427 -122h-152v-547h-239v1462h421q274 0 410.5 -112t136.5 -330zM432 748h127q184 0 270 64t86 200q0 126 -77 188t-240 62h-166v-514z" />
<glyph unicode="&#x421;" horiz-adv-x="1298" d="M815 1278q-206 0 -324 -146t-118 -403q0 -269 113.5 -407t328.5 -138q93 0 180 18.5t181 47.5v-205q-172 -65 -390 -65q-321 0 -493 194.5t-172 556.5q0 228 83.5 399t241.5 262t371 91q224 0 414 -94l-86 -199q-74 35 -156.5 61.5t-173.5 26.5z" />
<glyph unicode="&#x422;" horiz-adv-x="1159" d="M698 0h-239v1257h-430v205h1099v-205h-430v-1257z" />
<glyph unicode="&#x423;" horiz-adv-x="1305" d="M1305 1462l-461 -1040q-85 -191 -156 -276.5t-164.5 -125.5t-226.5 -40q-116 0 -215 30v215q98 -39 205 -39q91 0 152.5 44.5t111.5 160.5l-539 1071h258l357 -733q48 -104 59 -139h10q6 26 30 83l329 789h250z" />
<glyph unicode="&#x424;" horiz-adv-x="1698" d="M961 395h20q180 0 281.5 96.5t101.5 268.5q0 160 -94.5 254t-259.5 94h-49v-713zM735 -20v225h-33q-179 0 -314.5 65.5t-212.5 196.5t-77 291q0 155 70 279.5t201 195t307 70.5h59v180h226v-180h61q177 0 307.5 -70t199 -193.5t68.5 -281.5q0 -163 -77 -293t-211.5 -195 t-315.5 -65h-32v-225h-226zM735 1108h-49q-166 0 -260 -94.5t-94 -253.5q0 -170 101 -267.5t284 -97.5h18v713z" />
<glyph unicode="&#x425;" horiz-adv-x="1274" d="M1270 0h-275l-366 598l-369 -598h-256l485 758l-454 704h266l338 -553l338 553h258l-457 -708z" />
<glyph unicode="&#x426;" horiz-adv-x="1554" d="M1317 199h194v-602h-231v403h-1087v1462h239v-1257h645v1257h240v-1263z" />
<glyph unicode="&#x427;" horiz-adv-x="1456" d="M1264 0h-240v584q-135 -48 -240.5 -69t-212.5 -21q-207 0 -319.5 97.5t-112.5 276.5v594h240v-538q0 -114 56.5 -170t185.5 -56q95 0 185 17.5t218 60.5v686h240v-1462z" />
<glyph unicode="&#x428;" horiz-adv-x="2161" d="M1200 205h526v1257h242v-1462h-1775v1462h239v-1257h526v1257h242v-1257z" />
<glyph unicode="&#x429;" horiz-adv-x="2198" d="M1192 205h520v1257h240v-1263h194v-602h-231v403h-1722v1462h239v-1257h518v1257h242v-1257z" />
<glyph unicode="&#x42a;" horiz-adv-x="1448" d="M1350 440q0 -217 -141.5 -328.5t-415.5 -111.5h-433v1257h-352v205h592v-594h182q276 0 422 -109.5t146 -318.5zM600 201h178q161 0 243.5 56.5t82.5 182.5q0 118 -80.5 173t-271.5 55h-152v-467z" />
<glyph unicode="&#x42b;" horiz-adv-x="1800" d="M1163 440q0 -217 -140.5 -328.5t-412.5 -111.5h-417v1462h239v-594h170q274 0 417.5 -110t143.5 -318zM432 199h164q160 0 242 57.5t82 183.5q0 119 -78.5 172.5t-266.5 53.5h-143v-467zM1608 0h-240v1462h240v-1462z" />
<glyph unicode="&#x42c;" horiz-adv-x="1311" d="M1212 440q0 -215 -144.5 -327.5t-418.5 -112.5h-456v1462h239v-594h207q278 0 425.5 -110.5t147.5 -317.5zM432 201h201q161 0 247.5 56.5t86.5 182.5q0 118 -83 173t-278 55h-174v-467z" />
<glyph unicode="&#x42d;" horiz-adv-x="1323" d="M510 1278q-166 0 -358 -86l-86 197q201 94 448 94q326 0 506 -196.5t180 -543.5q0 -368 -182.5 -565.5t-525.5 -197.5q-228 0 -408 65v205q100 -29 193 -47.5t192 -18.5q230 0 349.5 118.5t127.5 348.5h-676v203h674q-14 200 -130 312t-304 112z" />
<glyph unicode="&#x42e;" horiz-adv-x="2171" d="M2048 733q0 -358 -169.5 -555.5t-479.5 -197.5q-297 0 -464.5 177.5t-184.5 501.5h-318v-659h-239v1462h239v-598h322q28 301 194 461t451 160q309 0 479 -198t170 -554zM997 733q0 -271 101 -410t299 -139q201 0 301 140t100 409q0 271 -101 409t-296 138 q-200 0 -302 -139t-102 -408z" />
<glyph unicode="&#x42f;" horiz-adv-x="1331" d="M655 586l-362 -586h-273l412 641q-280 97 -280 408q0 201 139 307t409 106h439v-1462h-240v586h-244zM899 1262h-190q-151 0 -231.5 -53.5t-80.5 -174.5q0 -118 78 -184t242 -66h182v478z" />
<glyph unicode="&#x430;" horiz-adv-x="1188" d="M860 0l-47 154h-8q-80 -101 -161 -137.5t-208 -36.5q-163 0 -254.5 88t-91.5 249q0 171 127 258t387 95l191 6v59q0 106 -49.5 158.5t-153.5 52.5q-85 0 -163 -25t-150 -59l-76 168q90 47 197 71.5t202 24.5q211 0 318.5 -92t107.5 -289v-745h-168zM510 160 q128 0 205.5 71.5t77.5 200.5v96l-142 -6q-166 -6 -241.5 -55.5t-75.5 -151.5q0 -74 44 -114.5t132 -40.5z" />
<glyph unicode="&#x431;" horiz-adv-x="1247" d="M104 664q0 370 125.5 569t399.5 256q207 42 477 82l33 -207q-328 -50 -480 -78q-157 -29 -226.5 -129t-80.5 -301h15q57 83 149 128.5t197 45.5q204 0 318 -129t114 -362q0 -267 -138.5 -413t-383.5 -146q-243 0 -381 180t-138 504zM639 172q262 0 262 344 q0 332 -237 332q-65 0 -126 -28t-112.5 -74t-79.5 -95q0 -236 75 -357.5t218 -121.5z" />
<glyph unicode="&#x432;" horiz-adv-x="1237" d="M1128 823q0 -196 -229 -237v-8q128 -15 196 -81t68 -171q0 -157 -119.5 -241.5t-347.5 -84.5h-528v1106h526q434 0 434 -283zM922 340q0 80 -62 113.5t-186 33.5h-271v-313h277q242 0 242 166zM893 803q0 66 -51.5 95.5t-153.5 29.5h-285v-266h250q118 0 179 30.5 t61 110.5z" />
<glyph unicode="&#x433;" horiz-adv-x="928" d="M883 1106v-184h-480v-922h-235v1106h715z" />
<glyph unicode="&#x434;" horiz-adv-x="1266" d="M1229 -391h-219v391h-758v-391h-217v573h90q118 169 187.5 408.5t82.5 515.5h672v-924h162v-573zM836 182v744h-238q-19 -206 -79.5 -406t-147.5 -338h465z" />
<glyph unicode="&#x435;" horiz-adv-x="1180" d="M651 -20q-258 0 -403.5 150.5t-145.5 414.5q0 271 135 426t371 155q219 0 346 -133t127 -366v-127h-737q5 -161 87 -247.5t231 -86.5q98 0 182.5 18.5t181.5 61.5v-191q-86 -41 -174 -58t-201 -17zM608 948q-112 0 -179.5 -71t-80.5 -207h502q-2 137 -66 207.5t-176 70.5 z" />
<glyph unicode="&#x436;" horiz-adv-x="1647" d="M713 569v537h219v-537l426 537h248l-435 -535l474 -571h-259l-454 561v-561h-219v561l-453 -561h-258l473 571l-434 535h248z" />
<glyph unicode="&#x437;" horiz-adv-x="1063" d="M412 664q161 0 237 35.5t76 109.5q0 135 -240 135q-160 0 -327 -72l-76 175q193 79 426 79q206 0 320 -75.5t114 -216.5q0 -186 -213 -244v-8q133 -36 190.5 -103t57.5 -166q0 -152 -133.5 -242.5t-372.5 -90.5q-261 0 -399 69v203q183 -86 379 -86q141 0 217.5 39.5 t76.5 120.5q0 83 -77 122t-238 39h-135v177h117z" />
<glyph unicode="&#x438;" horiz-adv-x="1386" d="M393 1106v-567q0 -99 -16 -291l555 858h287v-1106h-226v557q0 46 5.5 149t9.5 150l-553 -856h-287v1106h225z" />
<glyph unicode="&#x439;" horiz-adv-x="1386" d="M393 1106v-567q0 -99 -16 -291l555 858h287v-1106h-226v557q0 46 5.5 149t9.5 150l-553 -856h-287v1106h225zM686 1241q-212 0 -310.5 76.5t-109.5 255.5h213q6 -72 27.5 -112t62 -57.5t123.5 -17.5q98 0 149 43.5t62 143.5h217q-15 -172 -121 -252t-313 -80z" />
<glyph unicode="&#x43a;" horiz-adv-x="1165" d="M854 1106h258l-457 -533l496 -573h-270l-478 561v-561h-235v1106h235v-537z" />
<glyph unicode="&#x43b;" horiz-adv-x="1245" d="M1077 0h-237v922h-305q-28 -356 -75.5 -556t-124 -292t-198.5 -92q-77 0 -129 22v184q37 -14 74 -14q102 0 160.5 229.5t91.5 702.5h743v-1106z" />
<glyph unicode="&#x43c;" horiz-adv-x="1616" d="M803 225l13 48q41 149 71 229l248 604h313v-1106h-217v893l-18 -60q-45 -161 -76 -237l-242 -596h-178l-242 600q-50 130 -92 293v-893h-215v1106h311l240 -586q32 -81 84 -295z" />
<glyph unicode="&#x43d;" horiz-adv-x="1327" d="M403 1106v-444h521v444h235v-1106h-235v477h-521v-477h-235v1106h235z" />
<glyph unicode="&#x43e;" horiz-adv-x="1251" d="M1149 555q0 -271 -139 -423t-387 -152q-155 0 -274 70t-183 201t-64 304q0 269 138 420t389 151q240 0 380 -154.5t140 -416.5zM344 555q0 -383 283 -383q280 0 280 383q0 379 -282 379q-148 0 -214.5 -98t-66.5 -281z" />
<glyph unicode="&#x43f;" horiz-adv-x="1303" d="M1135 1106v-1106h-236v920h-496v-920h-235v1106h967z" />
<glyph unicode="&#x440;" horiz-adv-x="1276" d="M729 -20q-210 0 -326 151h-14q14 -140 14 -170v-453h-235v1598h190q8 -31 33 -148h12q110 168 330 168q207 0 322.5 -150t115.5 -421t-117.5 -423t-324.5 -152zM672 934q-140 0 -204.5 -82t-64.5 -262v-35q0 -202 64 -292.5t209 -90.5q122 0 188 100t66 285 q0 186 -65.5 281.5t-192.5 95.5z" />
<glyph unicode="&#x441;" horiz-adv-x="1014" d="M614 -20q-251 0 -381.5 146.5t-130.5 420.5q0 279 136.5 429t394.5 150q175 0 315 -65l-71 -189q-149 58 -246 58q-287 0 -287 -381q0 -186 71.5 -279.5t209.5 -93.5q157 0 297 78v-205q-63 -37 -134.5 -53t-173.5 -16z" />
<glyph unicode="&#x442;" horiz-adv-x="1044" d="M999 1106v-184h-360v-922h-236v922h-360v184h956z" />
<glyph unicode="&#x443;" horiz-adv-x="1098" d="M0 1106h256l225 -627q51 -134 68 -252h8q9 55 33 133.5t254 745.5h254l-473 -1253q-129 -345 -430 -345q-78 0 -152 17v186q53 -12 121 -12q170 0 239 197l41 104z" />
<glyph unicode="&#x444;" horiz-adv-x="1565" d="M1462 553q0 -249 -150.5 -397t-416.5 -168v-480h-223v480q-263 20 -416.5 170.5t-153.5 394.5q0 253 149 399.5t423 165.5v438h221v-438q266 -24 416.5 -173t150.5 -392zM346 553q0 -164 82 -264t246 -117v762q-165 -19 -246.5 -118t-81.5 -263zM1219 553 q0 162 -81.5 260t-242.5 117v-758q163 19 243.5 118.5t80.5 262.5z" />
<glyph unicode="&#x445;" horiz-adv-x="1128" d="M414 565l-371 541h268l252 -387l254 387h266l-372 -541l391 -565h-266l-273 414l-272 -414h-266z" />
<glyph unicode="&#x446;" horiz-adv-x="1346" d="M1153 182h160v-571h-221v389h-924v1106h235v-920h515v920h235v-924z" />
<glyph unicode="&#x447;" horiz-adv-x="1294" d="M375 1106v-404q0 -170 176 -170q85 0 166 23.5t174 75.5v475h235v-1106h-235v469q-97 -60 -187.5 -88.5t-197.5 -28.5q-173 0 -270 89.5t-97 250.5v414h236z" />
<glyph unicode="&#x448;" horiz-adv-x="1903" d="M1735 0h-1567v1106h235v-920h431v920h235v-920h430v920h236v-1106z" />
<glyph unicode="&#x449;" horiz-adv-x="1927" d="M1735 182h159v-571h-221v389h-1505v1106h235v-920h431v920h235v-920h430v920h236v-924z" />
<glyph unicode="&#x44a;" horiz-adv-x="1438" d="M608 1106v-442h264q241 0 357.5 -80t116.5 -240q0 -169 -118 -256.5t-351 -87.5h-504v922h-353v184h588zM1110 338q0 83 -60.5 116t-183.5 33h-258v-313h264q238 0 238 164z" />
<glyph unicode="&#x44b;" horiz-adv-x="1659" d="M403 664h224q232 0 343 -80t111 -240q0 -171 -115.5 -257.5t-338.5 -86.5h-459v1106h235v-442zM848 338q0 83 -61.5 116t-176.5 33h-207v-313h177q142 0 205 40t63 124zM1491 0h-236v1106h236v-1106z" />
<glyph unicode="&#x44c;" horiz-adv-x="1235" d="M403 664h277q463 0 463 -320q0 -169 -118 -256.5t-345 -87.5h-512v1106h235v-442zM907 338q0 83 -63 116t-178 33h-263v-313h267q116 0 176.5 42t60.5 122z" />
<glyph unicode="&#x44d;" horiz-adv-x="1028" d="M379 -20q-185 0 -313 63v193q159 -70 309 -70q286 0 305 313h-487v172h487q-12 149 -81 219t-200 70q-98 0 -258 -57l-65 174q67 31 154.5 50t172.5 19q261 0 391 -144t130 -423t-139.5 -429t-405.5 -150z" />
<glyph unicode="&#x44e;" horiz-adv-x="1749" d="M1645 555q0 -272 -132.5 -423.5t-369.5 -151.5q-218 0 -346.5 128.5t-149.5 368.5h-244v-477h-235v1106h235v-444h246q25 220 154.5 342t343.5 122q230 0 364 -154.5t134 -416.5zM887 555q0 -189 60.5 -286t197.5 -97q136 0 197 97t61 286q0 187 -61 283t-197 96 q-137 0 -197.5 -96t-60.5 -283z" />
<glyph unicode="&#x44f;" horiz-adv-x="1176" d="M281 0h-263l308 453q-112 32 -176 114.5t-64 204.5q0 157 112 245.5t306 88.5h504v-1106h-236v426h-223zM315 770q0 -85 64.5 -127.5t173.5 -42.5h219v328h-256q-96 0 -148.5 -41t-52.5 -117z" />
<glyph unicode="&#x450;" horiz-adv-x="1180" d="M651 -20q-258 0 -403.5 150.5t-145.5 414.5q0 271 135 426t371 155q219 0 346 -133t127 -366v-127h-737q5 -161 87 -247.5t231 -86.5q98 0 182.5 18.5t181.5 61.5v-191q-86 -41 -174 -58t-201 -17zM608 948q-112 0 -179.5 -71t-80.5 -207h502q-2 137 -66 207.5t-176 70.5 zM611 1241q-69 52 -174.5 150.5t-153.5 156.5v21h273q38 -70 103.5 -161t109.5 -142v-25h-158z" />
<glyph unicode="&#x451;" horiz-adv-x="1180" d="M297 1399q0 62 33.5 89.5t81.5 27.5q53 0 84.5 -31t31.5 -86q0 -53 -32 -85t-84 -32q-48 0 -81.5 29t-33.5 88zM690 1399q0 62 33.5 89.5t81.5 27.5q53 0 85 -31t32 -86q0 -54 -33 -85.5t-84 -31.5q-48 0 -81.5 29t-33.5 88zM651 -20q-258 0 -403.5 150.5t-145.5 414.5 q0 271 135 426t371 155q219 0 346 -133t127 -366v-127h-737q5 -161 87 -247.5t231 -86.5q98 0 182.5 18.5t181.5 61.5v-191q-86 -41 -174 -58t-201 -17zM608 948q-112 0 -179.5 -71t-80.5 -207h502q-2 137 -66 207.5t-176 70.5z" />
<glyph unicode="&#x452;" horiz-adv-x="1300" d="M821 -492q-91 0 -157 25v188q58 -18 116 -18q125 0 125 170v768q0 244 -215 244q-148 0 -217.5 -90t-69.5 -295v-500h-235v1219h-156v163h156v174h235v-174h359v-163h-359v-107q0 -29 -2 -69.5t-10 -133.5h15q54 87 141.5 127.5t193.5 40.5q400 0 400 -405v-815 q0 -168 -82.5 -258.5t-237.5 -90.5z" />
<glyph unicode="&#x453;" horiz-adv-x="928" d="M368 1241v25q57 70 117.5 156t95.5 147h273v-21q-52 -61 -155.5 -157.5t-174.5 -149.5h-156zM883 1106v-184h-480v-922h-235v1106h715z" />
<glyph unicode="&#x454;" horiz-adv-x="1040" d="M643 -20q-264 0 -402.5 145t-138.5 422q0 285 135.5 432t407.5 147q183 0 328 -65l-70 -178q-154 57 -264 57q-134 0 -205 -71t-88 -218h488v-172h-488q11 -161 81 -237t206 -76q152 0 315 70v-191q-132 -65 -305 -65z" />
<glyph unicode="&#x455;" horiz-adv-x="997" d="M911 315q0 -162 -118 -248.5t-338 -86.5q-221 0 -355 67v203q195 -90 363 -90q217 0 217 131q0 42 -24 70t-79 58t-153 68q-191 74 -258.5 148t-67.5 192q0 142 114.5 220.5t311.5 78.5q195 0 369 -79l-76 -177q-179 74 -301 74q-186 0 -186 -106q0 -52 48.5 -88 t211.5 -99q137 -53 199 -97t92 -101.5t30 -137.5z" />
<glyph unicode="&#x456;" horiz-adv-x="571" d="M403 0h-235v1106h235v-1106zM154 1399q0 63 34.5 97t98.5 34q62 0 96.5 -34t34.5 -97q0 -60 -34.5 -94.5t-96.5 -34.5q-64 0 -98.5 34.5t-34.5 94.5z" />
<glyph unicode="&#x457;" horiz-adv-x="571" d="M403 0h-235v1106h235v-1106zM-23 1399q0 62 33.5 89.5t81.5 27.5q53 0 84.5 -31t31.5 -86q0 -53 -32 -85t-84 -32q-48 0 -81.5 29t-33.5 88zM370 1399q0 62 33.5 89.5t81.5 27.5q53 0 85 -31t32 -86q0 -54 -33 -85.5t-84 -31.5q-48 0 -81.5 29t-33.5 88z" />
<glyph unicode="&#x458;" horiz-adv-x="571" d="M55 -492q-106 0 -176 25v186q68 -18 139 -18q150 0 150 170v1235h235v-1251q0 -171 -89.5 -259t-258.5 -88zM154 1399q0 63 34.5 97t98.5 34q62 0 96.5 -34t34.5 -97q0 -60 -34.5 -94.5t-96.5 -34.5q-64 0 -98.5 34.5t-34.5 94.5z" />
<glyph unicode="&#x459;" horiz-adv-x="1765" d="M782 0v922h-247q-28 -361 -75 -558.5t-123.5 -288.5t-197.5 -91q-84 0 -131 20v184q37 -14 74 -14q102 0 160.5 229.5t91.5 702.5h696v-442h193q230 0 340 -80t110 -240q0 -171 -116.5 -257.5t-342.5 -86.5h-432zM1438 338q0 83 -60.5 116t-177.5 33h-180v-313h184 q115 0 174.5 42t59.5 122z" />
<glyph unicode="&#x45a;" horiz-adv-x="1817" d="M1071 664h199q232 0 342 -80t110 -240q0 -170 -114.5 -257t-341.5 -87h-435v477h-425v-477h-238v1106h238v-444h428v444h237v-442zM1489 338q0 83 -60.5 116t-177.5 33h-182v-313h186q234 0 234 164z" />
<glyph unicode="&#x45b;" horiz-adv-x="1300" d="M1141 0h-236v631q0 127 -51.5 190.5t-163.5 63.5q-148 0 -217.5 -88.5t-69.5 -296.5v-500h-235v1219h-156v163h156v174h235v-174h381v-163h-381v-107q0 -29 -2 -69.5t-10 -133.5h15q54 87 141.5 127.5t193.5 40.5q400 0 400 -405v-672z" />
<glyph unicode="&#x45c;" horiz-adv-x="1165" d="M475 1241v25q57 70 117.5 156t95.5 147h273v-21q-52 -61 -155.5 -157.5t-174.5 -149.5h-156zM854 1106h258l-457 -533l496 -573h-270l-478 561v-561h-235v1106h235v-537z" />
<glyph unicode="&#x45d;" horiz-adv-x="1386" d="M393 1106v-567q0 -99 -16 -291l555 858h287v-1106h-226v557q0 46 5.5 149t9.5 150l-553 -856h-287v1106h225zM679 1241q-69 52 -174.5 150.5t-153.5 156.5v21h273q38 -70 103.5 -161t109.5 -142v-25h-158z" />
<glyph unicode="&#x45e;" horiz-adv-x="1098" d="M0 1106h256l225 -627q51 -134 68 -252h8q9 55 33 133.5t254 745.5h254l-473 -1253q-129 -345 -430 -345q-78 0 -152 17v186q53 -12 121 -12q170 0 239 197l41 104zM544 1241q-212 0 -310.5 76.5t-109.5 255.5h213q6 -72 27.5 -112t62 -57.5t123.5 -17.5q98 0 149 43.5 t62 143.5h217q-15 -172 -121 -252t-313 -80z" />
<glyph unicode="&#x45f;" horiz-adv-x="1323" d="M168 0v1106h235v-920h517v920h235v-1106h-381v-389h-219v389h-387z" />
<glyph unicode="&#x460;" horiz-adv-x="2148" d="M1489 1280q-43 0 -87 -15t-112 -59l-88 180q60 42 137.5 68.5t157.5 26.5q248 0 387 -187t139 -528q0 -372 -153 -579t-430 -207q-116 0 -203 29.5t-164 90.5q-87 -66 -172.5 -93t-191.5 -27q-278 0 -431 206t-153 580q0 341 138.5 528t385.5 187q81 0 159 -26.5 t138 -68.5l-90 -180q-69 45 -111.5 59.5t-85.5 14.5q-137 0 -213.5 -133.5t-76.5 -382.5q0 -277 98.5 -426.5t277.5 -149.5q114 0 205 74v426h240v-426q90 -74 213 -74q181 0 279 149.5t98 426.5q0 246 -77 381t-214 135z" />
<glyph unicode="&#x461;" horiz-adv-x="1745" d="M393 0l-391 1106h246l221 -668q37 -109 61 -256h9q10 38 26 81t183 427l-150 416h262l193 -604q73 -227 90 -297h8q140 170 200 378t60 523h238q0 -367 -99.5 -629t-312.5 -477h-227l-164 418l-47 -111l-144 -307h-262z" />
<glyph unicode="&#x462;" horiz-adv-x="1380" d="M539 1124v-256h161q284 0 432 -109.5t148 -318.5q0 -218 -142.5 -329t-422.5 -111h-416v1124h-289v189h289v243h240v-243h397v-189h-397zM539 199h159q169 0 253.5 57.5t84.5 183.5q0 121 -84.5 173.5t-281.5 52.5h-131v-467z" />
<glyph unicode="&#x463;" horiz-adv-x="1325" d="M494 922v-258h266q471 0 471 -320q0 -169 -117.5 -256.5t-349.5 -87.5h-506v922h-248v184h248v213h236v-213h350v-184h-350zM997 338q0 83 -63.5 116t-185.5 33h-254v-313h258q245 0 245 164z" />
<glyph unicode="&#x464;" horiz-adv-x="1913" d="M1419 1278q-196 0 -312 -106.5t-142 -307.5h657v-205h-659q10 -225 128 -350t326 -125q97 0 188 18.5t189 47.5v-205q-176 -65 -399 -65q-316 0 -492.5 175.5t-191.5 503.5h-279v-659h-239v1462h239v-598h285q38 293 223 455t487 164q222 0 422 -99l-86 -198 q-199 92 -344 92z" />
<glyph unicode="&#x465;" horiz-adv-x="1573" d="M1182 -20q-237 0 -372.5 126.5t-152.5 370.5h-254v-477h-235v1106h235v-444h254q25 228 155 346t362 118q168 0 323 -67l-67 -176q-139 57 -250 57q-133 0 -201 -69t-80 -209h479v-185h-481q9 -163 83 -237t208 -74q144 0 303 70v-193q-124 -63 -309 -63z" />
<glyph unicode="&#x466;" horiz-adv-x="1442" d="M1200 0l-248 655h-125v-655h-213v655h-127l-247 -655h-240l586 1464h268l588 -1464h-242zM559 850h322l-82 213q-66 170 -78 219q-6 -27 -25.5 -82t-136.5 -350z" />
<glyph unicode="&#x467;" horiz-adv-x="1233" d="M995 0l-180 455h-94v-455h-209v455h-96l-178 -455h-234l469 1106h285l469 -1106h-232zM481 629h271q-112 266 -136 338q-29 -81 -135 -338z" />
<glyph unicode="&#x468;" horiz-adv-x="1972" d="M1481 659h-123v-659h-213v659h-125l-246 -659h-244l265 659h-363v-659h-239v1462h239v-598h445l239 600h268l588 -1464h-246zM1092 854h315q-102 264 -124 326.5t-32 101.5q-7 -31 -28.5 -90.5t-130.5 -337.5z" />
<glyph unicode="&#x469;" horiz-adv-x="1708" d="M1233 1106l469 -1106h-232l-186 475h-90v-475h-207v475h-88l-188 -475h-232l201 477h-297v-477h-215v1106h215v-444h375l190 444h285zM965 649h252q-74 177 -92 225.5t-33 92.5l-88 -226z" />
<glyph unicode="&#x46a;" horiz-adv-x="1561" d="M31 0q31 105 143 453q47 146 96 220t119 115.5t170 55.5l-393 481v137h1233v-137l-404 -481q154 -22 242 -107.5t149 -283.5l144 -453h-244l-129 420q-41 133 -94 188.5t-127 55.5h-35v-664h-239v664h-33q-77 0 -128 -54t-93 -190l-129 -420h-248zM780 872l316 383h-631z " />
<glyph unicode="&#x46b;" horiz-adv-x="1294" d="M16 0l123 340q54 152 121 217t178 86l-311 358v105h1044v-105l-315 -360q75 -14 127 -46t90 -86.5t80 -168.5l125 -340h-215l-115 315q-34 96 -73 133t-93 37h-28v-485h-209v485h-33q-59 0 -96 -35.5t-72 -134.5l-115 -315h-213zM647 662l238 272h-473z" />
<glyph unicode="&#x46c;" horiz-adv-x="2095" d="M573 0l144 449q50 156 102 210h-387v-659h-239v1462h239v-598h653l-376 461v137h1230v-137l-401 -483q104 -13 175.5 -55.5t121 -117t94.5 -216.5l144 -453h-240l-131 420q-45 144 -97.5 193t-148.5 49h-12v-662h-240v662h-12q-96 0 -148 -48.5t-98 -193.5l-129 -420 h-244zM1323 870l315 385h-630z" />
<glyph unicode="&#x46d;" horiz-adv-x="1767" d="M1120 664l238 270h-473zM686 477h-303v-477h-215v1106h215v-444h514l-297 339v105h1045v-105l-316 -360q75 -14 127 -46t90 -86.5t80 -168.5l125 -340h-215l-115 315q-34 96 -73 133t-93 37h-28v-485h-209v485h-33q-59 0 -96 -35.5t-72 -134.5l-115 -315h-213l125 340 q41 107 72 137z" />
<glyph unicode="&#x46e;" horiz-adv-x="1243" d="M291 -127q0 -51 41.5 -73.5t118.5 -22.5q95 0 205 5t171 5q146 0 199 -39v-199q-22 19 -72.5 33.5t-128.5 14.5q-70 0 -176 -5q-107 -6 -225 -6q-181 0 -277 76t-96 213q0 147 113 219t358 82q199 6 287 65t88 185q0 117 -117 176.5t-342 59.5h-176v192h166 q436 0 436 233q0 96 -74.5 148.5t-207.5 52.5q-208 0 -400 -123l-110 162q176 117 370 143q-27 33 -61 71.5t-164 174.5v27h166q75 -53 217 -195q75 93 117 129.5t88 59t100 22.5q66 0 111 -14v-133q-26 12 -78 12q-43 0 -93.5 -38t-101.5 -116q169 -27 265 -121t96 -229 q0 -138 -91.5 -230.5t-258.5 -119.5v-8q187 -22 287 -112.5t100 -233.5q0 -203 -153.5 -315.5t-444.5 -118.5q-97 -2 -151.5 -13t-77.5 -32t-23 -64z" />
<glyph unicode="&#x46f;" horiz-adv-x="1063" d="M825 1368q64 0 109 -14v-133q-29 12 -76 12q-45 0 -91.5 -35t-84.5 -92q124 -30 192 -101t68 -171q0 -187 -209 -244v-8q131 -37 187.5 -102t56.5 -165q0 -160 -135 -246t-381 -87q-84 -1 -133.5 -11.5t-72 -30t-22.5 -59.5q0 -47 36 -69.5t128 -22.5q85 0 187 5l151 5 q132 0 164 -41v-186q-19 19 -61 31t-97 12q-69 0 -167.5 -5t-217.5 -5q-161 0 -245 69t-84 201q0 287 419 291q299 2 299 162q0 83 -78 121t-239 38h-133v177h117q161 0 237 35.5t76 109.5q0 135 -240 135q-160 0 -327 -72l-76 175q134 54 252 69q-70 85 -187 209v27h160 q78 -55 211 -193q72 89 115.5 127.5t91 60t100.5 21.5z" />
<glyph unicode="&#x470;" horiz-adv-x="1712" d="M1604 981q0 -263 -150.5 -402t-437.5 -139h-49v-440h-224v440h-49q-283 0 -434 136.5t-151 402.5v483h231v-479q0 -176 91.5 -260t283.5 -84h28v823h224v-823h30q182 0 277.5 85.5t95.5 254.5v483h234v-481z" />
<glyph unicode="&#x471;" horiz-adv-x="1628" d="M932 1556v-1386q180 15 267 113.5t87 291.5q0 113 -15 233.5t-57 297.5h226q69 -272 69 -528q0 -273 -145.5 -426.5t-431.5 -169.5v-474h-223v474q-275 9 -415 152.5t-140 418.5v553h227v-559q0 -186 78.5 -277t249.5 -102v1388h223z" />
<glyph unicode="&#x472;" horiz-adv-x="1614" d="M1491 733q0 -357 -178.5 -555t-505.5 -198q-331 0 -508.5 196.5t-177.5 558.5t178.5 556t509.5 194q326 0 504 -197t178 -555zM807 184q195 0 304 115.5t126 345.5h-862q15 -227 125.5 -344t306.5 -117zM809 1280q-189 0 -299 -108t-133 -324h856q-21 213 -128 322.5 t-296 109.5z" />
<glyph unicode="&#x473;" horiz-adv-x="1251" d="M1149 555q0 -271 -139 -423t-387 -152q-155 0 -274 70t-183 201t-64 304q0 269 138 420t389 151q240 0 380 -154.5t140 -416.5zM627 172q131 0 197.5 75.5t78.5 227.5h-557q12 -152 80 -227.5t201 -75.5zM625 934q-129 0 -196 -71.5t-81 -211.5h555q-15 141 -82.5 212 t-195.5 71z" />
<glyph unicode="&#x474;" horiz-adv-x="1374" d="M1296 1276q-54 0 -90 -47t-82 -191l-344 -1038h-268l-512 1462h246l313 -923q58 -186 86 -322q24 135 86 334l166 518q60 190 104 264.5t101.5 108t142.5 33.5q73 0 154 -29v-193q-53 23 -103 23z" />
<glyph unicode="&#x475;" horiz-adv-x="1137" d="M0 1106h246l215 -619q79 -231 88 -305h6q8 53 33 145t49 165l108 327q44 132 81 189t87.5 82.5t133.5 25.5q65 0 112 -20v-181q-33 13 -76 13q-46 0 -71.5 -36t-46.5 -101l-277 -791h-272z" />
<glyph unicode="&#x476;" horiz-adv-x="1374" d="M844 1579q-68 54 -164.5 155t-126.5 152v21h244q28 -61 77.5 -148t98.5 -155v-25h-129zM467 1579q-68 54 -164.5 155t-126.5 152v21h244q28 -61 77.5 -148t98.5 -155v-25h-129zM1296 1276q-54 0 -90 -47t-82 -191l-344 -1038h-268l-512 1462h246l313 -923 q58 -186 86 -322q24 135 86 334l166 518q60 190 104 264.5t101.5 108t142.5 33.5q73 0 154 -29v-193q-53 23 -103 23z" />
<glyph unicode="&#x477;" horiz-adv-x="1137" d="M742 1241q-68 54 -164.5 155t-126.5 152v21h244q28 -61 77.5 -148t98.5 -155v-25h-129zM365 1241q-68 54 -164.5 155t-126.5 152v21h244q28 -61 77.5 -148t98.5 -155v-25h-129zM0 1106h246l215 -619q79 -231 88 -305h6q8 53 33 145t49 165l108 327q44 132 81 189 t87.5 82.5t133.5 25.5q65 0 112 -20v-181q-33 13 -76 13q-46 0 -71.5 -36t-46.5 -101l-277 -791h-272z" />
<glyph unicode="&#x478;" horiz-adv-x="2589" d="M1397 733q0 -363 -165 -558t-472 -195q-312 0 -475.5 193t-163.5 562q0 368 164 559t477 191q308 0 471.5 -194.5t163.5 -557.5zM371 733q0 -278 97.5 -413.5t291.5 -135.5q197 0 292 135t95 414q0 275 -94 411t-291 136t-294 -136t-97 -411zM1487 1106h256l227 -629 q49 -127 68 -252h8q14 83 72 254l213 627h252l-472 -1253q-128 -345 -430 -345q-77 0 -151 17v186q53 -12 121 -12q170 0 239 197l41 104z" />
<glyph unicode="&#x479;" horiz-adv-x="2259" d="M1149 555q0 -271 -139 -423t-387 -152q-155 0 -274 70t-183 201t-64 304q0 269 138 420t389 151q240 0 380 -154.5t140 -416.5zM344 555q0 -383 283 -383q280 0 280 383q0 379 -282 379q-148 0 -214.5 -98t-66.5 -281zM1161 1106h256l225 -627q54 -155 68 -252h6 q18 93 72 254l217 625h252l-471 -1253q-129 -345 -430 -345q-75 0 -154 17v186q55 -12 123 -12q171 0 240 197l39 104z" />
<glyph unicode="&#x47a;" horiz-adv-x="1694" d="M1573 733q0 -311 -152.5 -506.5t-425.5 -236.5q-29 -113 -147 -113q-120 0 -146 113q-279 38 -430 233t-151 512q0 316 151.5 507.5t432.5 230.5q13 62 50 86t93 24q54 0 91 -24t52 -86q277 -39 429.5 -233.5t152.5 -506.5zM371 733q0 -217 84 -355.5t252 -178.5 q20 45 55 62.5t86 17.5q103 0 139 -80q169 40 252.5 178.5t83.5 355.5q0 214 -83.5 352t-250.5 179q-34 -82 -141 -82q-105 0 -143 80q-168 -41 -251 -178t-83 -351z" />
<glyph unicode="&#x47b;" horiz-adv-x="1368" d="M1264 555q0 -235 -116.5 -379.5t-332.5 -181.5q-18 -105 -131 -105q-116 0 -133 107q-211 36 -330 182.5t-119 376.5q0 237 119 381t334 178q9 51 42 70.5t87 19.5q50 0 83 -19.5t44 -72.5q213 -36 333 -183t120 -374zM344 555q0 -316 211 -375q15 40 44 59t85 19 q53 0 82.5 -20t46.5 -58q209 60 209 375q0 307 -207 369q-14 -45 -44.5 -66.5t-86.5 -21.5q-59 0 -89 21.5t-44 66.5q-207 -62 -207 -369z" />
<glyph unicode="&#x47c;" horiz-adv-x="2136" d="M1481 1280q-60 0 -109.5 -24t-89.5 -52l-78 180q130 97 285 97q248 0 386 -187t138 -528q0 -370 -153 -578t-433 -208q-113 0 -199 30t-161 90q-75 -60 -161 -90t-199 -30q-280 0 -433 206.5t-153 579.5q0 341 138.5 528t387.5 187q153 0 285 -97l-80 -180 q-103 76 -197 76q-137 0 -213.5 -133.5t-76.5 -382.5q0 -277 96 -427.5t268 -150.5q92 0 181.5 45t156.5 125q69 -80 158 -125t180 -45q173 0 270 151.5t97 426.5q0 246 -77 381t-214 135zM1495 2030v-158h-16q-98 0 -171 17t-131 38t-104 38t-88 17q-53 0 -74.5 -28.5 t-27.5 -85.5h-154v39q0 241 252 241q58 0 114.5 -18.5t116 -40.5t125.5 -40.5t144 -18.5h14zM1214 1753q0 -89 -74.5 -152t-197.5 -81v79q59 17 89 45t30 54q0 19 -17 27.5t-37.5 17t-37.5 21.5t-17 40q0 92 121 92q66 0 103.5 -39t37.5 -104z" />
<glyph unicode="&#x47d;" horiz-adv-x="1739" d="M602 -20q-241 0 -370.5 147.5t-129.5 427.5t111 425.5t328 145.5q138 0 245 -57l-71 -174q-88 47 -162 47q-207 0 -207 -385q0 -189 66 -288t198 -99q141 0 258 102q51 -43 114 -74.5t144 -31.5q131 0 198 100t67 291q0 385 -205 385q-51 0 -90.5 -15t-73.5 -32l-72 174 q112 57 248 57q216 0 326 -145.5t110 -425.5t-127.5 -427.5t-369.5 -147.5q-161 0 -269 88q-108 -88 -266 -88zM1276 1716v-157h-16q-99 0 -172.5 17.5t-131 38.5t-103 38.5t-87.5 17.5q-51 0 -72.5 -27.5t-29.5 -87.5h-154v39q0 118 60.5 179t191.5 61q58 0 114.5 -18.5 t116 -41t125.5 -41t144 -18.5h14zM995 1442q0 -91 -75.5 -153.5t-196.5 -80.5v78q59 19 88 46.5t29 53.5q0 19 -16.5 28t-37 17t-37 21t-16.5 41q0 45 32.5 68.5t88.5 23.5q66 0 103.5 -39t37.5 -104z" />
<glyph unicode="&#x47e;" horiz-adv-x="2122" d="M1481 1280q-43 0 -87 -15t-112 -59l-78 180q133 95 285 95q248 0 386 -187t138 -528q0 -373 -153.5 -579.5t-432.5 -206.5q-115 0 -202 31.5t-164 92.5q-88 -66 -176 -95t-193 -29q-279 0 -432.5 206t-153.5 580q0 339 137.5 527t387.5 188q151 0 287 -95l-80 -180 q-69 45 -111.5 59.5t-85.5 14.5q-136 0 -213.5 -133.5t-77.5 -382.5q0 -274 99 -425t282 -151q109 0 207 76v424h240v-420q93 -80 213 -80q183 0 282 150.5t99 425.5q0 246 -77 381t-214 135zM1473 1827v-60l-80 -170h-45l-50 103h-170l-49 -103h-43l-49 103h-172l-47 -103 h-45l-80 170v60h830z" />
<glyph unicode="&#x47f;" horiz-adv-x="1745" d="M399 0l-397 1106h246l221 -666q42 -125 63 -256h9q22 76 68.5 186.5t142.5 315.5l-156 420h248l203 -604q81 -251 92 -297h8q141 167 202.5 372t61.5 529h238q0 -253 -42 -437t-134 -349t-242 -320h-234l-112 311l-35 109l-45 -111l-135 -309h-271zM1249 1444v-58 l-82 -172h-43l-49 103h-172l-49 -103h-43l-49 103h-170l-49 -103h-43l-80 172v58h829z" />
<glyph unicode="&#x480;" horiz-adv-x="1348" d="M844 -20q-352 0 -537.5 192.5t-185.5 558.5q0 225 88 396.5t253 263.5t388 92q236 0 432 -94l-86 -199q-196 88 -352 88q-221 0 -346 -146.5t-125 -402.5q0 -270 118.5 -406.5t350.5 -136.5q127 0 241 31v-709h-239v472z" />
<glyph unicode="&#x481;" horiz-adv-x="1036" d="M614 -18q-248 8 -380 150.5t-132 414.5q0 285 135.5 432t407.5 147q177 0 324 -67l-70 -187q-156 58 -260 58q-153 0 -224 -92.5t-71 -288.5q0 -192 77 -283.5t218 -91.5q75 0 126 12t97 29v-707h-235v474h-13z" />
<glyph unicode="&#x482;" horiz-adv-x="1247" d="M514 309l-180 -313l-125 70l180 317l-285 166l68 119l289 -166l201 350l-287 166l69 121l287 -166l184 315l123 -71l-184 -318l289 -164l-72 -119l-285 164l-202 -350l286 -166l-69 -119z" />
<glyph unicode="&#x483;" horiz-adv-x="1141" d="M393 1251q-13 -94 -102 -94q-101 0 -101 115q0 56 23.5 81t79.5 25h455q11 95 102 95q102 0 102 -109q0 -56 -24 -84.5t-80 -28.5h-455z" />
<glyph unicode="&#x484;" horiz-adv-x="1182" d="M258 1407q78 0 144 18.5t125.5 41t115.5 41t115 18.5q130 0 192 -60t62 -180v-41h-154v27q0 88 -104 88q-42 0 -88 -17.5t-103 -38t-130.5 -38t-170.5 -17.5h-16v158h12z" />
<glyph unicode="&#x485;" horiz-adv-x="1182" d="M469 1462q0 65 38.5 104.5t104.5 39.5q57 0 89 -24t32 -69q0 -42 -54 -61q-27 -10 -40.5 -20t-13.5 -25q0 -26 29 -53.5t89 -44.5v-80q-124 19 -199 81.5t-75 151.5z" />
<glyph unicode="&#x486;" horiz-adv-x="1182" d="M743 1458q0 -86 -74 -148t-198 -81v80q59 17 88 44.5t29 53.5q0 19 -16.5 27.5t-37 17t-37 21.5t-16.5 40q0 45 32 69t89 24q66 0 103.5 -39.5t37.5 -108.5z" />
<glyph unicode="&#x488;" horiz-adv-x="2025" d="M1135 1231q-5 44 -35 66t-99 22q-78 0 -103 -20.5t-30 -67.5h-75q11 194 208 194q93 0 149.5 -50.5t63.5 -143.5h-79zM1135 -319q-5 44 -35 66t-99 22q-78 0 -103 -20.5t-30 -67.5h-75q5 89 55 141.5t153 52.5q92 0 149.5 -51t63.5 -143h-79zM1714 -41q-5 45 -35 66.5 t-98 21.5q-78 0 -103 -19.5t-30 -68.5h-76q5 90 55.5 142.5t153.5 52.5q92 0 149.5 -51t63.5 -144h-80zM561 -41q-5 45 -35 66.5t-98 21.5q-78 0 -103 -19.5t-30 -68.5h-76q5 90 55.5 142.5t153.5 52.5q92 0 149.5 -51t63.5 -144h-80zM1714 946q-5 45 -35 66.5t-98 21.5 q-78 0 -103 -19.5t-30 -68.5h-76q5 90 55.5 142.5t153.5 52.5q92 0 149.5 -51t63.5 -144h-80zM561 946q-5 45 -35 66.5t-98 21.5q-78 0 -103 -19.5t-30 -68.5h-76q5 90 55.5 142.5t153.5 52.5q92 0 149.5 -51t63.5 -144h-80zM1905 459q-5 44 -35 66t-98 22q-78 0 -103.5 -20 t-30.5 -68h-75q11 194 209 194q92 0 149.5 -52t63.5 -142h-80zM383 459q-5 45 -35 66.5t-98 21.5q-78 0 -103 -19.5t-30 -68.5h-76q5 90 55.5 142t153.5 52q92 0 149.5 -51t63.5 -143h-80z" />
<glyph unicode="&#x489;" horiz-adv-x="1958" d="M1090 -49q-17 -66 -52 -161.5t-71 -174.5h-97q53 221 70 350h139zM870 1155q19 71 55.5 171t67.5 165h97q-52 -220 -70 -350h-139zM1581 662q71 -19 171 -55.5t165 -67.5v-97q-221 53 -350 70v139zM377 442q-66 17 -161.5 52t-174.5 71v97q221 -53 350 -70v-139z M1653 1186l67 -68q-234 -152 -297 -198l-98 96l4 18q126 78 324 152zM1632 -143l-67 -68q-144 222 -199 297l96 98l19 -4q35 -58 78.5 -152t72.5 -171zM303 -125l-67 68q225 146 296 198l97 -96l-4 -18q-131 -78 -322 -152zM324 1204l67 68q158 -243 199 -297l-96 -98l-19 4 q-31 50 -76 146.5t-75 176.5z" />
<glyph unicode="&#x48a;" horiz-adv-x="1726" d="M193 1462h219v-762q0 -90 -15 -405h9q199 315 747 1167h277v-1253h260l-162 -612h-271l173 403h-218v754q0 29 1.5 71.5t3 89t4 92.5t4.5 83t3.5 60t2.5 24h-8l-752 -1174h-278v1462zM1241 1911q-18 -176 -123.5 -254t-310.5 -78q-211 0 -310 75.5t-112 256.5h215 q7 -102 51 -144.5t160 -42.5q103 0 153.5 46t59.5 141h217z" />
<glyph unicode="&#x48b;" horiz-adv-x="1479" d="M393 1106v-551q0 -17 -0.5 -38t-15.5 -269l555 858h287v-924h237l-137 -571h-232l132 389h-226v559q0 104 15 299l-555 -858h-285v1106h225zM698 1241q-212 0 -310 76.5t-109 255.5h213q7 -102 51 -144.5t162 -42.5q99 0 150 45.5t60 141.5h218q-16 -173 -122 -252.5 t-313 -79.5z" />
<glyph unicode="&#x48c;" horiz-adv-x="1257" d="M432 1292h320v-200h-320v-224h158q290 0 441 -109t151 -319q0 -218 -146 -329t-430 -111h-413v1092h-146v200h146v170h239v-170zM432 199h162q167 0 254.5 57.5t87.5 183.5q0 117 -83 171.5t-273 54.5h-148v-467z" />
<glyph unicode="&#x48d;" horiz-adv-x="1235" d="M12 1321h156v235h235v-235h336v-164h-336v-493h267q241 0 357 -80t116 -240q0 -171 -120 -257.5t-349 -86.5h-506v1157h-156v164zM907 338q0 83 -63.5 116t-186.5 33h-254v-313h259q245 0 245 164z" />
<glyph unicode="&#x48e;" horiz-adv-x="1268" d="M1169 1020q0 -130 -53 -229t-153 -158l104 -141l-125 -99l-133 178q-96 -24 -219 -24h-158v-547h-239v1462h430q271 0 408.5 -112.5t137.5 -329.5zM432 748h143q55 0 105 6l-82 110l131 97l111 -146q84 65 84 197q0 127 -78.5 188.5t-243.5 61.5h-170v-514z" />
<glyph unicode="&#x48f;" horiz-adv-x="1276" d="M729 -20q-210 0 -326 151h-14l7 -68l7 -104v-451h-235v1598h190l35 -148h13q110 168 327 168q207 0 322.5 -150t115.5 -421q0 -323 -163 -473l104 -139l-129 -101l-119 158q-59 -20 -135 -20zM672 934q-138 0 -201.5 -80t-67.5 -264v-35q0 -202 64 -292.5t209 -90.5 q39 0 61 8l-110 142l137 102l104 -135q62 89 62 268q0 190 -62.5 283.5t-195.5 93.5z" />
<glyph unicode="&#x490;" horiz-adv-x="1135" d="M432 0h-239v1462h681v305h216v-510h-658v-1257z" />
<glyph unicode="&#x491;" horiz-adv-x="963" d="M403 0h-235v1106h516v313h221v-491h-502v-928z" />
<glyph unicode="&#x492;" horiz-adv-x="1112" d="M432 823h412v-200h-412v-623h-239v623h-146v200h146v639h874v-205h-635v-434z" />
<glyph unicode="&#x493;" horiz-adv-x="940" d="M895 913h-502v-280h340v-182h-340v-451h-235v451h-148v182h148v473h737v-193z" />
<glyph unicode="&#x494;" horiz-adv-x="1409" d="M590 596q-62 0 -158 -12v-584h-239v1462h880v-205h-641v-458q106 12 234 12q200 0 348 -78.5t227.5 -229.5t79.5 -358q0 -202 -66 -350t-190 -227.5t-287 -79.5q-102 0 -167 10.5t-134 36.5v213q123 -49 260 -49q164 0 253 114.5t89 331.5t-124.5 334t-364.5 117z" />
<glyph unicode="&#x495;" horiz-adv-x="1153" d="M625 -502q-142 0 -252 56v204q109 -57 227 -57q124 0 190 92t66 273q0 179 -80.5 273.5t-257.5 94.5q-57 0 -115 -12v-422h-235v1106h741v-195h-506v-284q86 12 146 12q259 0 400 -150.5t141 -425.5q0 -269 -123.5 -417t-341.5 -148z" />
<glyph unicode="&#x496;" horiz-adv-x="1964" d="M559 756l-534 706h256l520 -708v708h227v-708l520 708h256l-534 -706l405 -547h250v-612h-231v403h-131l-535 741v-741h-227v741l-535 -741h-266z" />
<glyph unicode="&#x497;" horiz-adv-x="1763" d="M713 1106h219v-537l426 537h248l-435 -533l322 -391h229v-571h-217v389h-119l-454 561v-561h-219v561l-453 -561h-258l473 573l-434 533h248l424 -537v537z" />
<glyph unicode="&#x498;" horiz-adv-x="1257" d="M1120 1120q0 -143 -94.5 -234t-261.5 -116v-6q192 -23 292.5 -113.5t100.5 -236.5q0 -204 -159.5 -319t-440.5 -115q-292 0 -467 79v209q97 -46 217.5 -71t220.5 -25q385 0 385 252q0 116 -115.5 177t-342.5 61h-176v192h165q437 0 437 233q0 93 -74.5 147t-208.5 54 q-106 0 -202 -28t-199 -95l-109 162q225 156 530 156q232 0 367 -99t135 -264zM592 -233q0 54 -37 110.5t-106 122.5h151q72 -56 103 -92.5t48 -78.5t17 -87q0 -97 -60.5 -154t-164.5 -57q-70 0 -135 18v144q54 -15 100 -15q37 0 60.5 22.5t23.5 66.5z" />
<glyph unicode="&#x499;" horiz-adv-x="1063" d="M412 664q161 0 237 35.5t76 109.5q0 135 -240 135q-160 0 -327 -72l-76 175q193 79 426 79q206 0 320 -75.5t114 -216.5q0 -186 -213 -244v-8q133 -36 190.5 -103t57.5 -166q0 -152 -133.5 -242.5t-372.5 -90.5q-261 0 -399 69v203q183 -86 379 -86q141 0 217.5 39.5 t76.5 120.5q0 83 -77 122t-238 39h-135v177h117zM498 -233q0 54 -37 110.5t-106 122.5h151q72 -56 103 -92.5t48 -78.5t17 -87q0 -97 -60.5 -154t-164.5 -57q-70 0 -135 18v144q54 -15 100 -15q37 0 60.5 22.5t23.5 66.5z" />
<glyph unicode="&#x49a;" horiz-adv-x="1450" d="M1165 209h250v-612h-231v403h-152l-459 662l-141 -115v-547h-239v1462h239v-698q98 120 195 231l395 467h272q-383 -450 -549 -641z" />
<glyph unicode="&#x49b;" horiz-adv-x="1239" d="M854 1106h258l-457 -533l340 -391h213v-573h-217v391h-110l-478 561v-561h-235v1106h235v-537z" />
<glyph unicode="&#x49c;" horiz-adv-x="1309" d="M1309 0h-277l-346 500v-256h-129v405l-125 -102v-547h-239v1462h239v-698l125 149v357h129v-205l336 397h272l-549 -641z" />
<glyph unicode="&#x49d;" horiz-adv-x="1159" d="M502 686v328h137v-164l215 256h258l-457 -533l496 -573h-270l-242 283v-191h-137v352l-99 117v-561h-235v1106h235v-537z" />
<glyph unicode="&#x49e;" horiz-adv-x="1309" d="M1309 0h-277l-459 662l-141 -115v-547h-239v1102h-146v203h146v157h239v-157h180v-203h-180v-338q98 120 195 231l395 467h272q-383 -450 -549 -641z" />
<glyph unicode="&#x49f;" horiz-adv-x="1163" d="M12 1382h156v174h233v-174h349v-163h-349v-435l-10 -200h6l129 166l334 356h273l-445 -475l471 -631h-274l-355 483l-129 -104v-379h-233v1219h-156v163z" />
<glyph unicode="&#x4a0;" horiz-adv-x="1456" d="M8 1462h572v-700l589 700h273l-549 -641l563 -821h-276l-459 662l-141 -115v-547h-240v1255h-332v207z" />
<glyph unicode="&#x4a1;" horiz-adv-x="1341" d="M1049 1106h249l-458 -533l497 -573h-260l-479 561v-561h-225v922h-353v184h578v-537z" />
<glyph unicode="&#x4a2;" horiz-adv-x="1624" d="M1346 209h231v-612h-231v403h-240v659h-674v-659h-239v1462h239v-598h674v598h240v-1253z" />
<glyph unicode="&#x4a3;" horiz-adv-x="1423" d="M403 1106v-444h521v444h235v-924h213v-571h-221v389h-227v477h-521v-477h-235v1106h235z" />
<glyph unicode="&#x4a4;" horiz-adv-x="1686" d="M1677 1255h-331v-1255h-240v659h-674v-659h-239v1462h239v-598h674v598h571v-207z" />
<glyph unicode="&#x4a5;" horiz-adv-x="1530" d="M403 1106v-444h521v444h587v-184h-352v-922h-235v477h-521v-477h-235v1106h235z" />
<glyph unicode="&#x4a6;" horiz-adv-x="2245" d="M1270 797q100 14 237 14q191 0 334 -78.5t220 -228.5t77 -361q0 -202 -67.5 -351t-190.5 -226.5t-283 -77.5q-90 0 -157 10t-144 39v211q129 -47 260 -47q158 0 249 117t91 327q0 218 -114.5 333.5t-337.5 115.5q-102 0 -174 -16v-578h-240v1255h-598v-1255h-239v1462 h1077v-665z" />
<glyph unicode="&#x4a7;" horiz-adv-x="1796" d="M1726 63q0 -179 -53.5 -306t-155 -193t-239.5 -66q-134 0 -242 56v206q102 -59 217 -59q116 0 178 93t62 272t-77 273.5t-245 94.5q-41 0 -71 -10v-424h-238v920h-459v-920h-235v1106h932v-477q52 10 110 10q157 0 273.5 -67.5t179.5 -197.5t63 -311z" />
<glyph unicode="&#x4a8;" horiz-adv-x="1593" d="M1475 678q0 -164 -61.5 -305.5t-172.5 -233.5q61 -24 135 -24q78 0 142 22v-196q-60 -25 -164 -25q-175 0 -322 98q-102 -34 -248 -34q-205 0 -355 88.5t-229 254t-79 390.5q0 380 164.5 576t478.5 196q56 0 122 -11t111 -28l-61 -193q-84 29 -172 29q-395 0 -395 -559 q0 -257 112.5 -398t319.5 -141q38 0 65 9q-70 82 -113.5 215.5t-43.5 279.5q0 234 99 355.5t282 121.5t284 -126.5t101 -360.5zM1247 670q0 147 -39.5 227t-113.5 80t-116 -80t-42 -223q0 -136 38 -241.5t97 -170.5q78 56 127 166.5t49 241.5z" />
<glyph unicode="&#x4a9;" horiz-adv-x="1327" d="M786 502q0 -162 105 -260q57 35 92 101.5t35 160.5q0 182 -113 182q-119 0 -119 -184zM1112 -66q-145 0 -274 82q-108 -36 -226 -36q-152 0 -268 69.5t-179 199t-63 296.5q0 275 130 428t370 153q102 0 189 -30l-52 -183q-72 21 -139 21q-133 0 -195.5 -94.5 t-62.5 -300.5q0 -174 68 -270.5t208 -96.5q52 0 68 8q-106 138 -106 328q0 171 86 263.5t239 92.5q150 0 234 -94t84 -264q0 -123 -48.5 -221t-134.5 -156q40 -16 95 -16q64 0 118 14v-174q-55 -19 -141 -19z" />
<glyph unicode="&#x4aa;" horiz-adv-x="1298" d="M815 1278q-206 0 -324 -146t-118 -403q0 -269 113.5 -407t328.5 -138q93 0 180 18.5t181 47.5v-205q-172 -65 -390 -65q-321 0 -493 194.5t-172 556.5q0 228 83.5 399t241.5 262t371 91q224 0 414 -94l-86 -199q-74 35 -156.5 61.5t-173.5 26.5zM772 -233q0 54 -37 110.5 t-106 122.5h151q72 -56 103 -92.5t48 -78.5t17 -87q0 -97 -60.5 -154t-164.5 -57q-70 0 -135 18v144q54 -15 100 -15q37 0 60.5 22.5t23.5 66.5z" />
<glyph unicode="&#x4ab;" horiz-adv-x="1014" d="M614 -20q-251 0 -381.5 146.5t-130.5 420.5q0 279 136.5 429t394.5 150q175 0 315 -65l-71 -189q-149 58 -246 58q-287 0 -287 -381q0 -186 71.5 -279.5t209.5 -93.5q157 0 297 78v-205q-63 -37 -134.5 -53t-173.5 -16zM614 -233q0 54 -37 110.5t-106 122.5h151 q72 -56 103 -92.5t48 -78.5t17 -87q0 -97 -60.5 -154t-164.5 -57q-70 0 -135 18v144q54 -15 100 -15q37 0 60.5 22.5t23.5 66.5z" />
<glyph unicode="&#x4ac;" horiz-adv-x="1159" d="M698 209h232v-612h-232v403h-239v1255h-430v207h1099v-207h-430v-1046z" />
<glyph unicode="&#x4ad;" horiz-adv-x="1040" d="M999 922h-360v-740h211v-571h-219v389h-228v922h-360v184h956v-184z" />
<glyph unicode="&#x4ae;" horiz-adv-x="1212" d="M606 795l346 667h260l-487 -895v-567h-240v559l-485 903h260z" />
<glyph unicode="&#x4af;" horiz-adv-x="1100" d="M668 -2v-490h-236v490l-432 1108h254l205 -557q39 -103 86 -299h10q45 188 86 299l207 557h252z" />
<glyph unicode="&#x4b0;" horiz-adv-x="1212" d="M606 795l346 667h260l-487 -895v-49h309v-205h-309v-313h-240v313h-309v205h309v41l-485 903h260z" />
<glyph unicode="&#x4b1;" horiz-adv-x="1100" d="M670 0h282v-178h-284v-314h-236v314h-285v178h283l-430 1106h254l219 -596q39 -108 72 -260h10q33 132 76 254l217 602h252z" />
<glyph unicode="&#x4b2;" horiz-adv-x="1395" d="M1130 209h228v-612h-230v403h-133l-366 598l-369 -598h-256l485 758l-454 704h266l338 -553l338 553h258l-457 -708z" />
<glyph unicode="&#x4b3;" horiz-adv-x="1210" d="M563 414l-272 -414h-266l389 565l-371 541h268l252 -387l254 387h266l-372 -541l266 -383h203v-573h-219v391h-125z" />
<glyph unicode="&#x4b4;" horiz-adv-x="1827" d="M1548 209h236v-612h-232v403h-1128v1255h-395v207h1077v-207h-442v-1050h645v1257h239v-1253z" />
<glyph unicode="&#x4b5;" horiz-adv-x="1544" d="M895 922h-328v-736h494v920h235v-924h215v-571h-221v389h-958v922h-289v184h852v-184z" />
<glyph unicode="&#x4b6;" horiz-adv-x="1532" d="M1264 209h231v-612h-231v403h-240v584q-135 -48 -240.5 -69t-212.5 -21q-207 0 -319.5 97.5t-112.5 276.5v594h240v-538q0 -114 56.5 -170t185.5 -56q95 0 185 17.5t218 60.5v686h240v-1253z" />
<glyph unicode="&#x4b7;" horiz-adv-x="1366" d="M375 1106v-404q0 -170 176 -170q85 0 166 23.5t174 75.5v475h235v-924h211v-573h-219v391h-227v469q-97 -60 -187.5 -88.5t-197.5 -28.5q-173 0 -270 89.5t-97 250.5v414h236z" />
<glyph unicode="&#x4b8;" horiz-adv-x="1456" d="M627 494q-244 0 -366 92t-122 282v594h240v-538q0 -118 60 -172t188 -54v338h129v-329q114 13 268 67v688h240v-1462h-240v582q-154 -56 -268 -76v-313h-129v301z" />
<glyph unicode="&#x4b9;" horiz-adv-x="1286" d="M551 354l-23 -2h-26q-169 0 -266 88.5t-97 251.5v414h236v-404q0 -170 176 -170v279h123v-266q97 21 209 86v475h235v-1106h-235v469q-120 -73 -209 -94v-246h-123v225z" />
<glyph unicode="&#x4ba;" horiz-adv-x="1456" d="M193 1462h239v-585q146 50 252.5 71t200.5 21q208 0 320 -99t112 -278v-592h-240v539q0 112 -56 168.5t-185 56.5q-85 0 -172 -16t-232 -64v-684h-239v1462z" />
<glyph unicode="&#x4bb;" horiz-adv-x="1280" d="M918 0v408q0 163 -177 163q-82 0 -155.5 -19.5t-182.5 -76.5v-475h-235v1106h235v-471q183 117 383 117q176 0 272.5 -89.5t96.5 -250.5v-412h-237z" />
<glyph unicode="&#x4bc;" horiz-adv-x="1829" d="M1092 184q121 0 258 31.5t254 85.5v-217q-223 -104 -525 -104q-316 0 -497.5 173.5t-206.5 495.5q-344 0 -344 248q0 93 39 166h190q-24 -56 -24 -115q0 -96 104 -96h39q35 304 206 468.5t459 164.5q319 0 481.5 -192.5t162.5 -573.5v-70h-1063q13 -223 128 -344 t339 -121zM1042 1280q-183 0 -292 -111t-123 -317h809q0 220 -96.5 324t-297.5 104z" />
<glyph unicode="&#x4bd;" horiz-adv-x="1407" d="M328 670q43 224 171 340t330 116q225 0 353.5 -134t128.5 -365v-127h-750q10 -334 320 -334q103 0 187 17.5t187 62.5v-191q-86 -41 -176.5 -58t-201.5 -17q-249 0 -395.5 135.5t-159.5 384.5q-297 2 -297 225q0 82 32 141h174q-22 -42 -22 -106q0 -90 100 -90h19z M829 948q-114 0 -182.5 -69.5t-81.5 -208.5h512q0 132 -64.5 205t-183.5 73z" />
<glyph unicode="&#x4be;" horiz-adv-x="1829" d="M942 -10q-256 35 -401.5 205.5t-165.5 453.5q-168 0 -256 62t-88 186q0 93 39 166h190q-24 -56 -24 -115q0 -96 104 -96h39q31 300 205 466.5t460 166.5q319 0 481.5 -192.5t162.5 -573.5v-70h-1063q13 -223 128 -344t339 -121q121 0 258 31.5t254 85.5v-217 q-188 -87 -430 -100v-387h-232v393zM1042 1280q-183 0 -292 -111t-123 -317h809q0 220 -96.5 324t-297.5 104z" />
<glyph unicode="&#x4bf;" horiz-adv-x="1407" d="M729 -6q-189 36 -293 166.5t-114 339.5q-297 2 -297 225q0 82 32 141h174q-22 -42 -22 -106q0 -90 100 -90h19q43 224 171 340t330 116q225 0 353.5 -134t128.5 -365v-127h-750q10 -334 320 -334q103 0 187 17.5t187 62.5v-191q-130 -63 -307 -71v-373h-219v383zM829 948 q-114 0 -182.5 -69.5t-81.5 -208.5h512q0 132 -64.5 205t-183.5 73z" />
<glyph unicode="&#x4c0;" horiz-adv-x="625" d="M193 0v1462h239v-1462h-239z" />
<glyph unicode="&#x4c1;" horiz-adv-x="1829" d="M559 756l-534 706h256l520 -708v708h227v-708l520 708h256l-534 -706l557 -756h-264l-535 741v-741h-227v741l-535 -741h-266zM904 1579q-212 0 -310.5 76.5t-109.5 255.5h213q6 -72 27.5 -112t62 -57.5t123.5 -17.5q98 0 149 43.5t62 143.5h217q-15 -172 -121 -252 t-313 -80z" />
<glyph unicode="&#x4c2;" horiz-adv-x="1647" d="M713 569v537h219v-537l426 537h248l-435 -535l474 -571h-259l-454 561v-561h-219v561l-453 -561h-258l473 571l-434 535h248zM815 1241q-212 0 -310.5 76.5t-109.5 255.5h213q6 -72 27.5 -112t62 -57.5t123.5 -17.5q98 0 149 43.5t62 143.5h217q-15 -172 -121 -252 t-313 -80z" />
<glyph unicode="&#x4c3;" horiz-adv-x="1483" d="M643 586q-97 0 -211 -29v-557h-239v1462h239v-706l180 221l414 485h274l-606 -686h15q208 0 357 -71.5t230.5 -213.5t81.5 -346q0 -203 -68.5 -352t-193.5 -227t-289 -78q-88 0 -154 9.5t-147 39.5v211q129 -47 269 -47q163 0 253.5 117t90.5 327q0 212 -128 326.5 t-368 114.5z" />
<glyph unicode="&#x4c4;" horiz-adv-x="1239" d="M1163 63q0 -177 -58 -305t-164 -194t-247 -66q-137 0 -243 56v204q111 -59 219 -59q124 0 194 94t70 270q0 363 -344 363q-88 0 -189 -29v-397h-233v1106h233v-506l459 506h264l-465 -490q243 -2 373.5 -146.5t130.5 -406.5z" />
<glyph unicode="&#x4c5;" horiz-adv-x="1581" d="M1290 209h260l-161 -612h-271l172 403h-239v1257h-416q-79 -640 -126.5 -871t-133.5 -321.5t-228 -87.5q-73 0 -139 25v199q57 -25 111 -25q72 0 112.5 86.5t89 382.5t115.5 817h854v-1253z" />
<glyph unicode="&#x4c6;" horiz-adv-x="1329" d="M1075 182h238l-137 -571h-232l131 389h-235v920h-305q-28 -356 -75.5 -555.5t-123.5 -290t-199 -90.5q-82 0 -129 20v186q37 -14 74 -14q97 0 156 213t94 717h743v-924z" />
<glyph unicode="&#x4c7;" horiz-adv-x="1528" d="M1346 119q0 -295 -144.5 -463t-398.5 -168q-99 0 -164.5 10.5t-136.5 36.5v211q129 -47 272 -47q164 0 248 110t84 324v526h-674v-659h-239v1462h239v-598h674v598h240v-1343z" />
<glyph unicode="&#x4c8;" horiz-adv-x="1309" d="M711 -502q-76 0 -132 13.5t-110 42.5v206q109 -59 219 -59q118 0 175 86t59 260v430h-519v-477h-235v1106h235v-444h519v444h237v-1069q0 -255 -116.5 -397t-331.5 -142z" />
<glyph unicode="&#x4c9;" horiz-adv-x="1640" d="M1346 209h260l-162 -612h-270l172 403h-240v659h-674v-659h-239v1462h239v-598h674v598h240v-1253z" />
<glyph unicode="&#x4ca;" horiz-adv-x="1430" d="M403 1106v-444h521v444h235v-924h238l-137 -571h-232l131 389h-235v477h-521v-477h-235v1106h235z" />
<glyph unicode="&#x4cb;" horiz-adv-x="1456" d="M1264 0h-213v-403h-232v612h205v375q-135 -48 -240.5 -69t-212.5 -21q-207 0 -319.5 97.5t-112.5 276.5v594h240v-538q0 -114 56.5 -170t185.5 -56q95 0 185 17.5t218 60.5v686h240v-1462z" />
<glyph unicode="&#x4cc;" horiz-adv-x="1294" d="M375 1106v-404q0 -170 176 -170q85 0 166 23.5t174 75.5v475h235v-1106h-204v-391h-222v573h191v287q-97 -60 -187.5 -88.5t-197.5 -28.5q-173 0 -270 89.5t-97 250.5v414h236z" />
<glyph unicode="&#x4cd;" horiz-adv-x="1987" d="M825 0l-424 1221h-8q17 -327 17 -416v-805h-217v1462h337l406 -1163h8l416 1163h338v-1253h258l-160 -612h-272l174 403h-230v817q0 50 1.5 110t13.5 292h-8l-439 -1219h-211z" />
<glyph unicode="&#x4ce;" horiz-adv-x="1702" d="M803 225l13 48q41 149 71 229l248 604h313v-924h238l-138 -571h-231l131 389h-217v893l-18 -60q-45 -161 -76 -237l-242 -596h-178l-242 600q-50 130 -92 293v-893h-215v1106h311l244 -600q23 -58 41.5 -120t38.5 -161z" />
<glyph unicode="&#x4cf;" horiz-adv-x="625" d="M193 0v1462h239v-1462h-239z" />
<glyph unicode="&#x4d0;" horiz-adv-x="1354" d="M1100 0l-146 406h-559l-143 -406h-252l547 1468h260l547 -1468h-254zM891 612l-137 398q-15 40 -41.5 126t-36.5 126q-27 -123 -79 -269l-132 -381h426zM668 1579q-212 0 -310.5 76.5t-109.5 255.5h213q6 -72 27.5 -112t62 -57.5t123.5 -17.5q98 0 149 43.5t62 143.5h217 q-15 -172 -121 -252t-313 -80z" />
<glyph unicode="&#x4d1;" horiz-adv-x="1188" d="M860 0l-47 154h-8q-80 -101 -161 -137.5t-208 -36.5q-163 0 -254.5 88t-91.5 249q0 171 127 258t387 95l191 6v59q0 106 -49.5 158.5t-153.5 52.5q-85 0 -163 -25t-150 -59l-76 168q90 47 197 71.5t202 24.5q211 0 318.5 -92t107.5 -289v-745h-168zM510 160 q128 0 205.5 71.5t77.5 200.5v96l-142 -6q-166 -6 -241.5 -55.5t-75.5 -151.5q0 -74 44 -114.5t132 -40.5zM590 1241q-212 0 -310.5 76.5t-109.5 255.5h213q6 -72 27.5 -112t62 -57.5t123.5 -17.5q98 0 149 43.5t62 143.5h217q-15 -172 -121 -252t-313 -80z" />
<glyph unicode="&#x4d2;" horiz-adv-x="1354" d="M367 1737q0 62 33.5 89.5t81.5 27.5q53 0 84.5 -31t31.5 -86q0 -53 -32 -85t-84 -32q-48 0 -81.5 29t-33.5 88zM760 1737q0 62 33.5 89.5t81.5 27.5q53 0 85 -31t32 -86q0 -54 -33 -85.5t-84 -31.5q-48 0 -81.5 29t-33.5 88zM1100 0l-146 406h-559l-143 -406h-252 l547 1468h260l547 -1468h-254zM891 612l-137 398q-15 40 -41.5 126t-36.5 126q-27 -123 -79 -269l-132 -381h426z" />
<glyph unicode="&#x4d3;" horiz-adv-x="1188" d="M284 1399q0 62 33.5 89.5t81.5 27.5q53 0 84.5 -31t31.5 -86q0 -53 -32 -85t-84 -32q-48 0 -81.5 29t-33.5 88zM677 1399q0 62 33.5 89.5t81.5 27.5q53 0 85 -31t32 -86q0 -54 -33 -85.5t-84 -31.5q-48 0 -81.5 29t-33.5 88zM860 0l-47 154h-8q-80 -101 -161 -137.5 t-208 -36.5q-163 0 -254.5 88t-91.5 249q0 171 127 258t387 95l191 6v59q0 106 -49.5 158.5t-153.5 52.5q-85 0 -163 -25t-150 -59l-76 168q90 47 197 71.5t202 24.5q211 0 318.5 -92t107.5 -289v-745h-168zM510 160q128 0 205.5 71.5t77.5 200.5v96l-142 -6 q-166 -6 -241.5 -55.5t-75.5 -151.5q0 -74 44 -114.5t132 -40.5z" />
<glyph unicode="&#x4d4;" horiz-adv-x="1868" d="M1747 0h-811v406h-504l-188 -406h-246l678 1462h1071v-202h-571v-398h532v-200h-532v-459h571v-203zM522 612h414v641h-123z" />
<glyph unicode="&#x4d5;" horiz-adv-x="1817" d="M90 317q0 172 121.5 258.5t370.5 94.5l188 6v76q0 194 -201 194q-141 0 -307 -82l-74 166q88 47 192.5 71.5t203.5 24.5q241 0 340 -155q120 155 346 155q206 0 328 -134.5t122 -362.5v-127h-712q10 -336 301 -336q184 0 356 80v-191q-86 -41 -171.5 -58t-195.5 -17 q-140 0 -248.5 54.5t-175.5 164.5q-94 -125 -190.5 -172t-241.5 -47q-165 0 -258.5 90t-93.5 247zM334 315q0 -155 166 -155q124 0 196 72.5t72 199.5v96l-135 -6q-155 -6 -227 -54.5t-72 -152.5zM1266 948q-112 0 -177.5 -69.5t-74.5 -208.5h473q0 130 -58.5 204t-162.5 74 z" />
<glyph unicode="&#x4d6;" horiz-adv-x="1143" d="M1020 0h-827v1462h827v-202h-588v-398h551v-200h-551v-459h588v-203zM596 1579q-212 0 -310.5 76.5t-109.5 255.5h213q6 -72 27.5 -112t62 -57.5t123.5 -17.5q98 0 149 43.5t62 143.5h217q-15 -172 -121 -252t-313 -80z" />
<glyph unicode="&#x4d7;" horiz-adv-x="1180" d="M651 -20q-258 0 -403.5 150.5t-145.5 414.5q0 271 135 426t371 155q219 0 346 -133t127 -366v-127h-737q5 -161 87 -247.5t231 -86.5q98 0 182.5 18.5t181.5 61.5v-191q-86 -41 -174 -58t-201 -17zM608 948q-112 0 -179.5 -71t-80.5 -207h502q-2 137 -66 207.5t-176 70.5 zM602 1241q-212 0 -310.5 76.5t-109.5 255.5h213q6 -72 27.5 -112t62 -57.5t123.5 -17.5q98 0 149 43.5t62 143.5h217q-15 -172 -121 -252t-313 -80z" />
<glyph unicode="&#x4d8;" horiz-adv-x="1583" d="M741 1280q-247 0 -516 -119v213q130 61 252.5 86t267.5 25q337 0 526 -200.5t189 -555.5q0 -353 -178 -551t-498 -198q-645 0 -645 763v72h1069q-15 232 -134 348.5t-333 116.5zM784 184q184 0 296.5 111.5t125.5 314.5h-815q0 -220 96 -323t297 -103z" />
<glyph unicode="&#x4d9;" horiz-adv-x="1188" d="M530 1126q260 0 407.5 -149t147.5 -416q0 -272 -136 -426.5t-371 -154.5q-225 0 -353.5 133.5t-128.5 365.5v127h750q-5 167 -86.5 250.5t-233.5 83.5q-189 0 -374 -82v193q85 39 172.5 57t205.5 18zM578 158q113 0 183 70t81 208h-512q0 -133 64 -205.5t184 -72.5z" />
<glyph unicode="&#x4da;" horiz-adv-x="1583" d="M486 1737q0 62 33.5 89.5t81.5 27.5q53 0 84.5 -31t31.5 -86q0 -53 -32 -85t-84 -32q-48 0 -81.5 29t-33.5 88zM879 1737q0 62 33.5 89.5t81.5 27.5q53 0 85 -31t32 -86q0 -54 -33 -85.5t-84 -31.5q-48 0 -81.5 29t-33.5 88zM741 1280q-247 0 -516 -119v213 q130 61 252.5 86t267.5 25q337 0 526 -200.5t189 -555.5q0 -353 -178 -551t-498 -198q-645 0 -645 763v72h1069q-15 232 -134 348.5t-333 116.5zM784 184q184 0 296.5 111.5t125.5 314.5h-815q0 -220 96 -323t297 -103z" />
<glyph unicode="&#x4db;" horiz-adv-x="1188" d="M282 1399q0 62 33.5 89.5t81.5 27.5q53 0 84.5 -31t31.5 -86q0 -53 -32 -85t-84 -32q-48 0 -81.5 29t-33.5 88zM675 1399q0 62 33.5 89.5t81.5 27.5q53 0 85 -31t32 -86q0 -54 -33 -85.5t-84 -31.5q-48 0 -81.5 29t-33.5 88zM530 1126q260 0 407.5 -149t147.5 -416 q0 -272 -136 -426.5t-371 -154.5q-225 0 -353.5 133.5t-128.5 365.5v127h750q-5 167 -86.5 250.5t-233.5 83.5q-189 0 -374 -82v193q85 39 172.5 57t205.5 18zM578 158q113 0 183 70t81 208h-512q0 -133 64 -205.5t184 -72.5z" />
<glyph unicode="&#x4dc;" horiz-adv-x="1829" d="M600 1737q0 62 33.5 89.5t81.5 27.5q53 0 84.5 -31t31.5 -86q0 -53 -32 -85t-84 -32q-48 0 -81.5 29t-33.5 88zM993 1737q0 62 33.5 89.5t81.5 27.5q53 0 85 -31t32 -86q0 -54 -33 -85.5t-84 -31.5q-48 0 -81.5 29t-33.5 88zM559 756l-534 706h256l520 -708v708h227v-708 l520 708h256l-534 -706l557 -756h-264l-535 741v-741h-227v741l-535 -741h-266z" />
<glyph unicode="&#x4dd;" horiz-adv-x="1647" d="M510 1399q0 62 33.5 89.5t81.5 27.5q53 0 84.5 -31t31.5 -86q0 -53 -32 -85t-84 -32q-48 0 -81.5 29t-33.5 88zM903 1399q0 62 33.5 89.5t81.5 27.5q53 0 85 -31t32 -86q0 -54 -33 -85.5t-84 -31.5q-48 0 -81.5 29t-33.5 88zM713 569v537h219v-537l426 537h248l-435 -535 l474 -571h-259l-454 561v-561h-219v561l-453 -561h-258l473 571l-434 535h248z" />
<glyph unicode="&#x4de;" horiz-adv-x="1257" d="M307 1737q0 62 33.5 89.5t81.5 27.5q53 0 84.5 -31t31.5 -86q0 -53 -32 -85t-84 -32q-48 0 -81.5 29t-33.5 88zM700 1737q0 62 33.5 89.5t81.5 27.5q53 0 85 -31t32 -86q0 -54 -33 -85.5t-84 -31.5q-48 0 -81.5 29t-33.5 88zM1120 1120q0 -143 -94.5 -234t-261.5 -116v-6 q192 -23 292.5 -113.5t100.5 -236.5q0 -204 -159.5 -319t-440.5 -115q-292 0 -467 79v209q97 -46 217.5 -71t220.5 -25q385 0 385 252q0 116 -115.5 177t-342.5 61h-176v192h165q437 0 437 233q0 93 -74.5 147t-208.5 54q-106 0 -202 -28t-199 -95l-109 162q225 156 530 156 q232 0 367 -99t135 -264z" />
<glyph unicode="&#x4df;" horiz-adv-x="1063" d="M214 1399q0 62 33.5 89.5t81.5 27.5q53 0 84.5 -31t31.5 -86q0 -53 -32 -85t-84 -32q-48 0 -81.5 29t-33.5 88zM607 1399q0 62 33.5 89.5t81.5 27.5q53 0 85 -31t32 -86q0 -54 -33 -85.5t-84 -31.5q-48 0 -81.5 29t-33.5 88zM412 664q161 0 237 35.5t76 109.5 q0 135 -240 135q-160 0 -327 -72l-76 175q193 79 426 79q206 0 320 -75.5t114 -216.5q0 -186 -213 -244v-8q133 -36 190.5 -103t57.5 -166q0 -152 -133.5 -242.5t-372.5 -90.5q-261 0 -399 69v203q183 -86 379 -86q141 0 217.5 39.5t76.5 120.5q0 83 -77 122t-238 39h-135 v177h117z" />
<glyph unicode="&#x4e0;" horiz-adv-x="1202" d="M297 844l426 413h-612v205h929v-170l-471 -450q263 -10 399 -119t136 -301q0 -208 -158.5 -325t-445.5 -117q-261 0 -434 79v209q99 -46 212 -71t216 -25q366 0 366 258q0 236 -432 236h-131v178z" />
<glyph unicode="&#x4e1;" horiz-adv-x="1096" d="M256 473l430 447h-610v186h895v-160l-447 -463q239 -20 368.5 -146.5t129.5 -334.5q0 -148 -70 -260.5t-200.5 -173t-302.5 -60.5q-244 0 -408 76v207q94 -44 200.5 -67t200.5 -23q163 0 252.5 82t89.5 223q0 301 -407 301h-121v166z" />
<glyph unicode="&#x4e2;" horiz-adv-x="1622" d="M490 1753h639v-174h-639v174zM193 1462h219v-760q0 -119 -6 -240.5t-9 -164.5h9l747 1165h279v-1462h-220v754q0 173 19 420h-8l-750 -1174h-280v1462z" />
<glyph unicode="&#x4e3;" horiz-adv-x="1386" d="M373 1415h639v-174h-639v174zM393 1106v-567q0 -99 -16 -291l555 858h287v-1106h-226v557q0 46 5.5 149t9.5 150l-553 -856h-287v1106h225z" />
<glyph unicode="&#x4e4;" horiz-adv-x="1622" d="M498 1737q0 62 33.5 89.5t81.5 27.5q53 0 84.5 -31t31.5 -86q0 -53 -32 -85t-84 -32q-48 0 -81.5 29t-33.5 88zM891 1737q0 62 33.5 89.5t81.5 27.5q53 0 85 -31t32 -86q0 -54 -33 -85.5t-84 -31.5q-48 0 -81.5 29t-33.5 88zM193 1462h219v-760q0 -119 -6 -240.5 t-9 -164.5h9l747 1165h279v-1462h-220v754q0 173 19 420h-8l-750 -1174h-280v1462z" />
<glyph unicode="&#x4e5;" horiz-adv-x="1386" d="M381 1399q0 62 33.5 89.5t81.5 27.5q53 0 84.5 -31t31.5 -86q0 -53 -32 -85t-84 -32q-48 0 -81.5 29t-33.5 88zM774 1399q0 62 33.5 89.5t81.5 27.5q53 0 85 -31t32 -86q0 -54 -33 -85.5t-84 -31.5q-48 0 -81.5 29t-33.5 88zM393 1106v-567q0 -99 -16 -291l555 858h287 v-1106h-226v557q0 46 5.5 149t9.5 150l-553 -856h-287v1106h225z" />
<glyph unicode="&#x4e6;" horiz-adv-x="1612" d="M494 1737q0 62 33.5 89.5t81.5 27.5q53 0 84.5 -31t31.5 -86q0 -53 -32 -85t-84 -32q-48 0 -81.5 29t-33.5 88zM887 1737q0 62 33.5 89.5t81.5 27.5q53 0 85 -31t32 -86q0 -54 -33 -85.5t-84 -31.5q-48 0 -81.5 29t-33.5 88zM1491 733q0 -357 -178.5 -555t-505.5 -198 q-331 0 -508.5 196.5t-177.5 558.5t178.5 556t509.5 194q326 0 504 -197t178 -555zM375 733q0 -270 109 -409.5t323 -139.5q213 0 321.5 138t108.5 411q0 269 -107.5 408t-320.5 139q-215 0 -324.5 -139t-109.5 -408z" />
<glyph unicode="&#x4e7;" horiz-adv-x="1251" d="M313 1399q0 62 33.5 89.5t81.5 27.5q53 0 84.5 -31t31.5 -86q0 -53 -32 -85t-84 -32q-48 0 -81.5 29t-33.5 88zM706 1399q0 62 33.5 89.5t81.5 27.5q53 0 85 -31t32 -86q0 -54 -33 -85.5t-84 -31.5q-48 0 -81.5 29t-33.5 88zM1149 555q0 -271 -139 -423t-387 -152 q-155 0 -274 70t-183 201t-64 304q0 269 138 420t389 151q240 0 380 -154.5t140 -416.5zM344 555q0 -383 283 -383q280 0 280 383q0 379 -282 379q-148 0 -214.5 -98t-66.5 -281z" />
<glyph unicode="&#x4e8;" horiz-adv-x="1614" d="M1491 733q0 -357 -178.5 -555t-505.5 -198q-331 0 -508.5 196.5t-177.5 558.5t178.5 556t509.5 194q326 0 504 -197t178 -555zM807 184q195 0 304 115.5t126 345.5h-862q15 -227 125.5 -344t306.5 -117zM809 1280q-189 0 -299 -108t-133 -324h856q-21 213 -128 322.5 t-296 109.5z" />
<glyph unicode="&#x4e9;" horiz-adv-x="1251" d="M1149 555q0 -271 -139 -423t-387 -152q-155 0 -274 70t-183 201t-64 304q0 269 138 420t389 151q240 0 380 -154.5t140 -416.5zM627 172q131 0 197.5 75.5t78.5 227.5h-557q12 -152 80 -227.5t201 -75.5zM625 934q-129 0 -196 -71.5t-81 -211.5h555q-15 141 -82.5 212 t-195.5 71z" />
<glyph unicode="&#x4ea;" horiz-adv-x="1614" d="M496 1737q0 62 33.5 89.5t81.5 27.5q53 0 84.5 -31t31.5 -86q0 -53 -32 -85t-84 -32q-48 0 -81.5 29t-33.5 88zM889 1737q0 62 33.5 89.5t81.5 27.5q53 0 85 -31t32 -86q0 -54 -33 -85.5t-84 -31.5q-48 0 -81.5 29t-33.5 88zM1491 733q0 -357 -178.5 -555t-505.5 -198 q-331 0 -508.5 196.5t-177.5 558.5t178.5 556t509.5 194q326 0 504 -197t178 -555zM807 184q195 0 304 115.5t126 345.5h-862q15 -227 125.5 -344t306.5 -117zM809 1280q-189 0 -299 -108t-133 -324h856q-21 213 -128 322.5t-296 109.5z" />
<glyph unicode="&#x4eb;" horiz-adv-x="1251" d="M311 1399q0 62 33.5 89.5t81.5 27.5q53 0 84.5 -31t31.5 -86q0 -53 -32 -85t-84 -32q-48 0 -81.5 29t-33.5 88zM704 1399q0 62 33.5 89.5t81.5 27.5q53 0 85 -31t32 -86q0 -54 -33 -85.5t-84 -31.5q-48 0 -81.5 29t-33.5 88zM1149 555q0 -271 -139 -423t-387 -152 q-155 0 -274 70t-183 201t-64 304q0 269 138 420t389 151q240 0 380 -154.5t140 -416.5zM627 172q131 0 197.5 75.5t78.5 227.5h-557q12 -152 80 -227.5t201 -75.5zM625 934q-129 0 -196 -71.5t-81 -211.5h555q-15 141 -82.5 212t-195.5 71z" />
<glyph unicode="&#x4ec;" horiz-adv-x="1323" d="M299 1737q0 62 33.5 89.5t81.5 27.5q53 0 84.5 -31t31.5 -86q0 -53 -32 -85t-84 -32q-48 0 -81.5 29t-33.5 88zM692 1737q0 62 33.5 89.5t81.5 27.5q53 0 85 -31t32 -86q0 -54 -33 -85.5t-84 -31.5q-48 0 -81.5 29t-33.5 88zM510 1278q-166 0 -358 -86l-86 197 q201 94 448 94q326 0 506 -196.5t180 -543.5q0 -368 -182.5 -565.5t-525.5 -197.5q-228 0 -408 65v205q100 -29 193 -47.5t192 -18.5q230 0 349.5 118.5t127.5 348.5h-676v203h674q-14 200 -130 312t-304 112z" />
<glyph unicode="&#x4ed;" horiz-adv-x="1028" d="M183 1399q0 62 33.5 89.5t81.5 27.5q53 0 84.5 -31t31.5 -86q0 -53 -32 -85t-84 -32q-48 0 -81.5 29t-33.5 88zM576 1399q0 62 33.5 89.5t81.5 27.5q53 0 85 -31t32 -86q0 -54 -33 -85.5t-84 -31.5q-48 0 -81.5 29t-33.5 88zM379 -20q-185 0 -313 63v193q159 -70 309 -70 q286 0 305 313h-487v172h487q-12 149 -81 219t-200 70q-98 0 -258 -57l-65 174q67 31 154.5 50t172.5 19q261 0 391 -144t130 -423t-139.5 -429t-405.5 -150z" />
<glyph unicode="&#x4ee;" horiz-adv-x="1305" d="M338 1753h639v-174h-639v174zM1305 1462l-461 -1040q-85 -191 -156 -276.5t-164.5 -125.5t-226.5 -40q-116 0 -215 30v215q98 -39 205 -39q91 0 152.5 44.5t111.5 160.5l-539 1071h258l357 -733q48 -104 59 -139h10q6 26 30 83l329 789h250z" />
<glyph unicode="&#x4ef;" horiz-adv-x="1098" d="M233 1415h639v-174h-639v174zM0 1106h256l225 -627q51 -134 68 -252h8q9 55 33 133.5t254 745.5h254l-473 -1253q-129 -345 -430 -345q-78 0 -152 17v186q53 -12 121 -12q170 0 239 197l41 104z" />
<glyph unicode="&#x4f0;" horiz-adv-x="1305" d="M346 1737q0 62 33.5 89.5t81.5 27.5q53 0 84.5 -31t31.5 -86q0 -53 -32 -85t-84 -32q-48 0 -81.5 29t-33.5 88zM739 1737q0 62 33.5 89.5t81.5 27.5q53 0 85 -31t32 -86q0 -54 -33 -85.5t-84 -31.5q-48 0 -81.5 29t-33.5 88zM1305 1462l-461 -1040q-85 -191 -156 -276.5 t-164.5 -125.5t-226.5 -40q-116 0 -215 30v215q98 -39 205 -39q91 0 152.5 44.5t111.5 160.5l-539 1071h258l357 -733q48 -104 59 -139h10q6 26 30 83l329 789h250z" />
<glyph unicode="&#x4f1;" horiz-adv-x="1098" d="M239 1399q0 62 33.5 89.5t81.5 27.5q53 0 84.5 -31t31.5 -86q0 -53 -32 -85t-84 -32q-48 0 -81.5 29t-33.5 88zM632 1399q0 62 33.5 89.5t81.5 27.5q53 0 85 -31t32 -86q0 -54 -33 -85.5t-84 -31.5q-48 0 -81.5 29t-33.5 88zM0 1106h256l225 -627q51 -134 68 -252h8 q9 55 33 133.5t254 745.5h254l-473 -1253q-129 -345 -430 -345q-78 0 -152 17v186q53 -12 121 -12q170 0 239 197l41 104z" />
<glyph unicode="&#x4f2;" horiz-adv-x="1305" d="M355 1579v25q104 144 186 303h244v-21q-29 -49 -126 -148t-175 -159h-129zM731 1579v25q43 57 99.5 147.5t87.5 155.5h243v-21q-29 -49 -126 -148t-175 -159h-129zM1305 1462l-461 -1040q-85 -191 -156 -276.5t-164.5 -125.5t-226.5 -40q-116 0 -215 30v215 q98 -39 205 -39q91 0 152.5 44.5t111.5 160.5l-539 1071h258l357 -733q48 -104 59 -139h10q6 26 30 83l329 789h250z" />
<glyph unicode="&#x4f3;" horiz-adv-x="1098" d="M236 1241v25q104 144 186 303h244v-21q-29 -49 -126 -148t-175 -159h-129zM612 1241v25q43 57 99.5 147.5t87.5 155.5h243v-21q-29 -49 -126 -148t-175 -159h-129zM0 1106h256l225 -627q51 -134 68 -252h8q9 55 33 133.5t254 745.5h254l-473 -1253q-129 -345 -430 -345 q-78 0 -152 17v186q53 -12 121 -12q170 0 239 197l41 104z" />
<glyph unicode="&#x4f4;" horiz-adv-x="1456" d="M389 1737q0 62 33.5 89.5t81.5 27.5q53 0 84.5 -31t31.5 -86q0 -53 -32 -85t-84 -32q-48 0 -81.5 29t-33.5 88zM782 1737q0 62 33.5 89.5t81.5 27.5q53 0 85 -31t32 -86q0 -54 -33 -85.5t-84 -31.5q-48 0 -81.5 29t-33.5 88zM1264 0h-240v584q-135 -48 -240.5 -69 t-212.5 -21q-207 0 -319.5 97.5t-112.5 276.5v594h240v-538q0 -114 56.5 -170t185.5 -56q95 0 185 17.5t218 60.5v686h240v-1462z" />
<glyph unicode="&#x4f5;" horiz-adv-x="1294" d="M322 1399q0 62 33.5 89.5t81.5 27.5q53 0 84.5 -31t31.5 -86q0 -53 -32 -85t-84 -32q-48 0 -81.5 29t-33.5 88zM715 1399q0 62 33.5 89.5t81.5 27.5q53 0 85 -31t32 -86q0 -54 -33 -85.5t-84 -31.5q-48 0 -81.5 29t-33.5 88zM375 1106v-404q0 -170 176 -170 q85 0 166 23.5t174 75.5v475h235v-1106h-235v469q-97 -60 -187.5 -88.5t-197.5 -28.5q-173 0 -270 89.5t-97 250.5v414h236z" />
<glyph unicode="&#x4f6;" horiz-adv-x="1114" d="M193 1462h876v-205h-637v-1048h230v-612h-230v403h-239v1462z" />
<glyph unicode="&#x4f7;" horiz-adv-x="928" d="M168 1106h715v-184h-480v-740h211v-571h-219v389h-227v1106z" />
<glyph unicode="&#x4f8;" horiz-adv-x="1800" d="M588 1737q0 62 33.5 89.5t81.5 27.5q53 0 84.5 -31t31.5 -86q0 -53 -32 -85t-84 -32q-48 0 -81.5 29t-33.5 88zM981 1737q0 62 33.5 89.5t81.5 27.5q53 0 85 -31t32 -86q0 -54 -33 -85.5t-84 -31.5q-48 0 -81.5 29t-33.5 88zM1163 440q0 -217 -140.5 -328.5 t-412.5 -111.5h-417v1462h239v-594h170q274 0 417.5 -110t143.5 -318zM432 199h164q160 0 242 57.5t82 183.5q0 119 -78.5 172.5t-266.5 53.5h-143v-467zM1608 0h-240v1462h240v-1462z" />
<glyph unicode="&#x4f9;" horiz-adv-x="1659" d="M516 1399q0 62 33.5 89.5t81.5 27.5q53 0 84.5 -31t31.5 -86q0 -53 -32 -85t-84 -32q-48 0 -81.5 29t-33.5 88zM909 1399q0 62 33.5 89.5t81.5 27.5q53 0 85 -31t32 -86q0 -54 -33 -85.5t-84 -31.5q-48 0 -81.5 29t-33.5 88zM403 664h224q232 0 343 -80t111 -240 q0 -171 -115.5 -257.5t-338.5 -86.5h-459v1106h235v-442zM848 338q0 83 -61.5 116t-176.5 33h-207v-313h177q142 0 205 40t63 124zM1491 0h-236v1106h236v-1106z" />
<glyph unicode="&#x4fa;" horiz-adv-x="1112" d="M432 823h412v-200h-412v-623h-239v623h-146v200h146v639h874v-205h-635v-434zM360 -444q-81 0 -150 24v189q55 -19 111 -19q109 0 109 135v342h221v-356q0 -154 -75 -234.5t-216 -80.5z" />
<glyph unicode="&#x4fb;" horiz-adv-x="940" d="M895 913h-502v-280h340v-182h-340v-451h-235v451h-148v182h148v473h737v-193zM322 -444q-81 0 -150 24v189q55 -19 111 -19q109 0 109 135v318h221v-332q0 -154 -75 -234.5t-216 -80.5z" />
<glyph unicode="&#x4fc;" horiz-adv-x="1384" d="M1270 0h-275l-366 598l-369 -598h-256l485 758l-454 704h266l338 -553l338 553h258l-457 -708zM1051 -444q-81 0 -150 24v189q55 -19 111 -19q109 0 109 135v342h221v-356q0 -154 -75 -234.5t-216 -80.5z" />
<glyph unicode="&#x4fd;" horiz-adv-x="1212" d="M414 565l-371 541h268l252 -387l254 387h266l-372 -541l391 -565h-266l-273 414l-272 -414h-266zM893 -444q-81 0 -150 24v189q55 -19 111 -19q109 0 109 135v318h221v-332q0 -154 -75 -234.5t-216 -80.5z" />
<glyph unicode="&#x4fe;" horiz-adv-x="1274" d="M119 862h303l-387 600h266l338 -555l338 555h258l-387 -600h305v-203h-313l430 -659h-275l-366 598l-369 -598h-258l422 659h-305v203z" />
<glyph unicode="&#x4ff;" horiz-adv-x="1128" d="M109 655h245l-311 451h268l252 -387l254 387h266l-313 -451h250v-180h-248l330 -475h-266l-273 414l-272 -414h-266l327 475h-243v180z" />
<glyph unicode="&#x2000;" horiz-adv-x="1074" />
<glyph unicode="&#x2001;" horiz-adv-x="2148" />
<glyph unicode="&#x2002;" horiz-adv-x="1074" />
<glyph unicode="&#x2003;" horiz-adv-x="2148" />
<glyph unicode="&#x2004;" horiz-adv-x="716" />
<glyph unicode="&#x2005;" horiz-adv-x="537" />
<glyph unicode="&#x2006;" horiz-adv-x="358" />
<glyph unicode="&#x2007;" horiz-adv-x="358" />
<glyph unicode="&#x2008;" horiz-adv-x="268" />
<glyph unicode="&#x2009;" horiz-adv-x="429" />
<glyph unicode="&#x200a;" horiz-adv-x="119" />
<glyph unicode="&#x2010;" horiz-adv-x="659" d="M72 449v200h514v-200h-514z" />
<glyph unicode="&#x2011;" horiz-adv-x="659" d="M72 449v200h514v-200h-514z" />
<glyph unicode="&#x2012;" horiz-adv-x="659" d="M72 449v200h514v-200h-514z" />
<glyph unicode="&#x2013;" d="M72 449v200h1024v-200h-1024z" />
<glyph unicode="&#x2014;" horiz-adv-x="2193" d="M72 449v200h2048v-200h-2048z" />
<glyph unicode="&#x202f;" horiz-adv-x="429" />
<glyph unicode="&#x205f;" horiz-adv-x="537" />
<glyph unicode="&#x25fc;" horiz-adv-x="1105" d="M0 1105h1105v-1105h-1105v1105z" />
<glyph horiz-adv-x="1182" d="M582 1241q-212 0 -310.5 76.5t-109.5 255.5h213q6 -72 27.5 -112t62 -57.5t123.5 -17.5q98 0 149 43.5t62 143.5h217q-15 -172 -121 -252t-313 -80z" />
<glyph horiz-adv-x="420" d="M213 -233q0 54 -37 110.5t-106 122.5h151q72 -56 103 -92.5t48 -78.5t17 -87q0 -97 -60.5 -154t-164.5 -57q-70 0 -135 18v144q54 -15 100 -15q37 0 60.5 22.5t23.5 66.5z" />
<glyph horiz-adv-x="508" d="M170 -444q-81 0 -150 24v189q55 -19 111 -19q109 0 109 135v342h221v-356q0 -154 -75 -234.5t-216 -80.5z" />
<glyph horiz-adv-x="508" d="M170 -444q-81 0 -150 24v189q55 -19 111 -19q109 0 109 135v318h221v-332q0 -154 -75 -234.5t-216 -80.5z" />
</font>
</defs></svg> 